#FIG 3.2
Portrait
Center
Inches
A4      
100.00
Single
-2
1200 2
6 1650 150 5325 3300
1 1 0 1 -1 -1 0 0 -1 0.000 1 0.0000 2475 750 450 150 2475 750 2925 600
1 1 0 1 -1 -1 0 0 -1 0.000 1 0.0000 2400 1875 450 150 2400 1875 2850 1725
1 1 0 1 -1 -1 0 0 -1 0.000 1 0.0000 2325 2850 450 150 2325 2850 2775 2700
1 1 0 1 -1 -1 0 0 -1 0.000 1 0.0000 4500 2850 450 150 4500 2850 4950 2700
1 1 0 1 -1 -1 0 0 -1 0.000 1 0.0000 4500 1875 450 150 4500 1875 4950 1725
1 1 0 1 -1 -1 0 0 -1 0.000 1 0.0000 4500 750 450 150 4500 750 4950 600
4 0 -1 0 0 1 10 0.0000 4 105 1095 1875 2250 Tri sur un attribut\001
4 0 -1 0 0 0 8 0.0000 4 105 555 1650 1725 Attribut(s)\001
4 0 -1 0 0 0 8 0.0000 4 105 555 3825 2625 Attribut(s)\001
4 0 -1 0 0 1 10 0.0000 4 135 1710 2625 300 OPERATIONS PHYSIQUES\001
4 0 -1 0 0 0 10 0.0000 4 105 570 2175 825 Selection\001
4 0 -1 0 0 0 10 0.0000 4 105 195 2250 1950 Tri\001
4 0 -1 0 0 0 10 0.0000 4 105 420 2100 2925 Fusion\001
4 0 -1 0 0 0 10 0.0000 4 135 645 4200 2925 Projection\001
4 0 -1 0 0 0 10 0.0000 4 105 510 4200 1950 Jointure\001
4 0 -1 0 0 1 10 0.0000 4 120 1305 3900 1200 Filtre d'un ensemble \001
4 0 -1 0 0 1 10 0.0000 4 165 1350 3900 1395 en fonction d'un autre\001
4 0 -1 0 0 0 10 0.0000 4 105 375 4350 825 Filtre\001
4 0 -1 0 0 0 8 0.0000 4 120 330 1875 600 Crit\350re\001
4 0 -1 0 0 0 8 0.0000 4 120 330 1800 2625 Crit\350re\001
4 0 -1 0 0 1 10 0.0000 4 120 1905 1650 3300 Fusion de deux ensembles tri\351s\001
4 0 -1 0 0 1 10 0.0000 4 120 1590 1800 1275 S\351lection selon un crit\350re\001
4 0 -1 0 0 0 8 0.0000 4 120 330 3900 600 Crit\350re\001
4 0 -1 0 0 1 10 0.0000 4 120 1515 3750 2250 Jointure selon un crit\350re\001
4 0 -1 0 0 0 8 0.0000 4 120 330 3825 1725 Crit\350re\001
-6
2 2 0 1 -1 -1 0 0 -1 0.000 0 0 0 0 0 5
	 1200 2025 1200 1725 600 1725 600 2025 1200 2025
2 2 0 1 -1 -1 0 0 -1 0.000 0 0 0 0 0 5
	 1275 3000 1275 2700 675 2700 675 3000 1275 3000
2 2 0 1 -1 -1 0 0 -1 0.000 0 0 0 0 0 5
	 1200 975 1200 675 600 675 600 975 1200 975
4 0 -1 0 0 1 10 0.0000 4 120 1050 375 3300 Parcours d'index\001
4 0 -1 0 0 1 10 0.0000 4 120 1335 300 300 CHEMINS D'ACCES\001
4 0 -1 0 0 0 10 0.0000 4 105 480 675 1950 TABLE\001
4 0 -1 0 0 0 10 0.0000 4 105 495 750 2925 INDEX\001
4 0 -1 0 0 0 8 0.0000 4 105 555 300 2625 Attribut(s)\001
4 0 -1 0 0 0 10 0.0000 4 105 480 675 900 TABLE\001
4 0 -1 0 0 0 8 0.0000 4 75 405 300 1650 Adresse\001
4 0 -1 0 0 0 8 0.0000 4 120 480 225 600 S\351quentiel\001
4 0 -1 0 0 1 10 0.0000 4 165 1245 225 1275 Parcours s\351quentiel\001
4 0 -1 0 0 1 10 0.0000 4 165 1140 300 2250 Acc\350s par adresse\001
4 0 -1 0 0 1 10 0.0000 4 150 1680 3750 3300 Projection sur des attributs\001
