%!PS-Adobe-2.0 EPSF-2.0
%%Title: archi-myphp.eps
%%Creator: fig2dev Version 3.2 Patchlevel 1
%%CreationDate: Fri Oct 20 11:05:54 2000
%%For: rigaux@cartier ()
%%Orientation: Portrait
%%BoundingBox: 0 0 376 134
%%Pages: 0
%%BeginSetup
%%EndSetup
%%Magnification: 1.0000
%%EndComments
/$F2psDict 200 dict def
$F2psDict begin
$F2psDict /mtrx matrix put
/col-1 {0 setgray} bind def
/col0 {0.000 0.000 0.000 srgb} bind def
/col1 {0.000 0.000 1.000 srgb} bind def
/col2 {0.000 1.000 0.000 srgb} bind def
/col3 {0.000 1.000 1.000 srgb} bind def
/col4 {1.000 0.000 0.000 srgb} bind def
/col5 {1.000 0.000 1.000 srgb} bind def
/col6 {1.000 1.000 0.000 srgb} bind def
/col7 {1.000 1.000 1.000 srgb} bind def
/col8 {0.000 0.000 0.560 srgb} bind def
/col9 {0.000 0.000 0.690 srgb} bind def
/col10 {0.000 0.000 0.820 srgb} bind def
/col11 {0.530 0.810 1.000 srgb} bind def
/col12 {0.000 0.560 0.000 srgb} bind def
/col13 {0.000 0.690 0.000 srgb} bind def
/col14 {0.000 0.820 0.000 srgb} bind def
/col15 {0.000 0.560 0.560 srgb} bind def
/col16 {0.000 0.690 0.690 srgb} bind def
/col17 {0.000 0.820 0.820 srgb} bind def
/col18 {0.560 0.000 0.000 srgb} bind def
/col19 {0.690 0.000 0.000 srgb} bind def
/col20 {0.820 0.000 0.000 srgb} bind def
/col21 {0.560 0.000 0.560 srgb} bind def
/col22 {0.690 0.000 0.690 srgb} bind def
/col23 {0.820 0.000 0.820 srgb} bind def
/col24 {0.500 0.190 0.000 srgb} bind def
/col25 {0.630 0.250 0.000 srgb} bind def
/col26 {0.750 0.380 0.000 srgb} bind def
/col27 {1.000 0.500 0.500 srgb} bind def
/col28 {1.000 0.630 0.630 srgb} bind def
/col29 {1.000 0.750 0.750 srgb} bind def
/col30 {1.000 0.880 0.880 srgb} bind def
/col31 {1.000 0.840 0.000 srgb} bind def

end
save
-21.0 160.0 translate
1 -1 scale

/cp {closepath} bind def
/ef {eofill} bind def
/gr {grestore} bind def
/gs {gsave} bind def
/sa {save} bind def
/rs {restore} bind def
/l {lineto} bind def
/m {moveto} bind def
/rm {rmoveto} bind def
/n {newpath} bind def
/s {stroke} bind def
/sh {show} bind def
/slc {setlinecap} bind def
/slj {setlinejoin} bind def
/slw {setlinewidth} bind def
/srgb {setrgbcolor} bind def
/rot {rotate} bind def
/sc {scale} bind def
/sd {setdash} bind def
/ff {findfont} bind def
/sf {setfont} bind def
/scf {scalefont} bind def
/sw {stringwidth} bind def
/tr {translate} bind def
/tnt {dup dup currentrgbcolor
  4 -2 roll dup 1 exch sub 3 -1 roll mul add
  4 -2 roll dup 1 exch sub 3 -1 roll mul add
  4 -2 roll dup 1 exch sub 3 -1 roll mul add srgb}
  bind def
/shd {dup dup currentrgbcolor 4 -2 roll mul 4 -2 roll mul
  4 -2 roll mul srgb} bind def
/reencdict 12 dict def /ReEncode { reencdict begin
/newcodesandnames exch def /newfontname exch def /basefontname exch def
/basefontdict basefontname findfont def /newfont basefontdict maxlength dict def
basefontdict { exch dup /FID ne { dup /Encoding eq
{ exch dup length array copy newfont 3 1 roll put }
{ exch newfont 3 1 roll put } ifelse } { pop pop } ifelse } forall
newfont /FontName newfontname put newcodesandnames aload pop
128 1 255 { newfont /Encoding get exch /.notdef put } for
newcodesandnames length 2 idiv { newfont /Encoding get 3 1 roll put } repeat
newfontname newfont definefont pop end } def
/isovec [
8#200 /grave 8#201 /acute 8#202 /circumflex 8#203 /tilde
8#204 /macron 8#205 /breve 8#206 /dotaccent 8#207 /dieresis
8#210 /ring 8#211 /cedilla 8#212 /hungarumlaut 8#213 /ogonek 8#214 /caron
8#220 /dotlessi 8#230 /oe 8#231 /OE
8#240 /space 8#241 /exclamdown 8#242 /cent 8#243 /sterling
8#244 /currency 8#245 /yen 8#246 /brokenbar 8#247 /section 8#250 /dieresis
8#251 /copyright 8#252 /ordfeminine 8#253 /guillemotleft 8#254 /logicalnot
8#255 /endash 8#256 /registered 8#257 /macron 8#260 /degree 8#261 /plusminus
8#262 /twosuperior 8#263 /threesuperior 8#264 /acute 8#265 /mu 8#266 /paragraph
8#267 /periodcentered 8#270 /cedilla 8#271 /onesuperior 8#272 /ordmasculine
8#273 /guillemotright 8#274 /onequarter 8#275 /onehalf
8#276 /threequarters 8#277 /questiondown 8#300 /Agrave 8#301 /Aacute
8#302 /Acircumflex 8#303 /Atilde 8#304 /Adieresis 8#305 /Aring
8#306 /AE 8#307 /Ccedilla 8#310 /Egrave 8#311 /Eacute
8#312 /Ecircumflex 8#313 /Edieresis 8#314 /Igrave 8#315 /Iacute
8#316 /Icircumflex 8#317 /Idieresis 8#320 /Eth 8#321 /Ntilde 8#322 /Ograve
8#323 /Oacute 8#324 /Ocircumflex 8#325 /Otilde 8#326 /Odieresis 8#327 /multiply
8#330 /Oslash 8#331 /Ugrave 8#332 /Uacute 8#333 /Ucircumflex
8#334 /Udieresis 8#335 /Yacute 8#336 /Thorn 8#337 /germandbls 8#340 /agrave
8#341 /aacute 8#342 /acircumflex 8#343 /atilde 8#344 /adieresis 8#345 /aring
8#346 /ae 8#347 /ccedilla 8#350 /egrave 8#351 /eacute
8#352 /ecircumflex 8#353 /edieresis 8#354 /igrave 8#355 /iacute
8#356 /icircumflex 8#357 /idieresis 8#360 /eth 8#361 /ntilde 8#362 /ograve
8#363 /oacute 8#364 /ocircumflex 8#365 /otilde 8#366 /odieresis 8#367 /divide
8#370 /oslash 8#371 /ugrave 8#372 /uacute 8#373 /ucircumflex
8#374 /udieresis 8#375 /yacute 8#376 /thorn 8#377 /ydieresis] def
/Times-Roman /Times-Roman-iso isovec ReEncode
/Times-Italic /Times-Italic-iso isovec ReEncode
 /DrawEllipse {
	/endangle exch def
	/startangle exch def
	/yrad exch def
	/xrad exch def
	/y exch def
	/x exch def
	/savematrix mtrx currentmatrix def
	x y tr xrad yrad sc 0 0 1 startangle endangle arc
	closepath
	savematrix setmatrix
	} def

/$F2psBegin {$F2psDict begin /$F2psEnteredState save def} def
/$F2psEnd {$F2psEnteredState restore end} def
%%EndProlog

$F2psBegin
10 setmiterlimit
n -1000 3665 m -1000 -1000 l 7612 -1000 l 7612 3665 l cp clip
 0.06000 0.06000 sc
/Times-Roman-iso ff 150.00 scf sf
5700 1995 m
gs 1 -1 sc (de donn\351es) col0 sh gr
/Times-Roman-iso ff 150.00 scf sf
5850 1800 m
gs 1 -1 sc (Base) col0 sh gr
/Times-Roman-iso ff 150.00 scf sf
4500 1800 m
gs 1 -1 sc (Fichiers) col0 sh gr
/Times-Roman-iso ff 150.00 scf sf
4575 2025 m
gs 1 -1 sc (PHP) col0 sh gr
7.500 slw
% Ellipse
n 2700 975 530 530 0 360 DrawEllipse gs col0 s gr

% Ellipse
n 5400 1537 1050 113 0 360 DrawEllipse gs col0 s gr

% Ellipse
n 5400 2212 1050 113 0 360 DrawEllipse gs col0 s gr

% Polyline
n 1196 825 m 1204 825 l gs col0 s gr
% Polyline
gs  clippath
2055 795 m 2175 825 l 2055 855 l 2190 855 l 2190 795 l cp
clip
n 1200 825 m 2175 825 l gs col0 s gr gr

% arrowhead
n 2055 795 m 2175 825 l 2055 855 l 2055 825 l 2055 795 l  cp gs 0.00 setgray ef gr  col0 s
% Polyline
gs  clippath
1320 1080 m 1200 1050 l 1320 1020 l 1185 1020 l 1185 1080 l cp
clip
n 2175 1050 m 1200 1050 l gs col0 s gr gr

% arrowhead
n 1320 1080 m 1200 1050 l 1320 1020 l 1320 1050 l 1320 1080 l  cp gs 0.00 setgray ef gr  col0 s
% Polyline
gs  clippath
5430 795 m 5550 825 l 5430 855 l 5565 855 l 5565 795 l cp
clip
n 4950 825 m 5550 825 l gs col0 s gr gr

% arrowhead
n 5430 795 m 5550 825 l 5430 855 l 5430 825 l 5430 795 l  cp gs 0.00 setgray ef gr  col0 s
% Polyline
gs  clippath
5070 1080 m 4950 1050 l 5070 1020 l 4935 1020 l 4935 1080 l cp
clip
n 5550 1050 m 4950 1050 l gs col0 s gr gr

% arrowhead
n 5070 1080 m 4950 1050 l 5070 1020 l 5070 1050 l 5070 1080 l  cp gs 0.00 setgray ef gr  col0 s
% Polyline
n 6450 1575 m 6450 2250 l gs col0 s gr 
% Polyline
n 5655 675 m 5550 675 5550 1020 105 arcto 4 {pop} repeat
  5550 1125 6345 1125 105 arcto 4 {pop} repeat
  6450 1125 6450 780 105 arcto 4 {pop} repeat
  6450 675 5655 675 105 arcto 4 {pop} repeat
 cp gs col0 s gr 
% Polyline
gs  clippath
3345 1155 m 3225 1125 l 3345 1095 l 3210 1095 l 3210 1155 l cp
clip
n 4275 1125 m 3225 1125 l gs col0 s gr gr

% arrowhead
n 3345 1155 m 3225 1125 l 3345 1095 l 3345 1125 l 3345 1155 l  cp gs 0.00 setgray ef gr  col0 s
% Polyline
gs  clippath
4155 720 m 4275 750 l 4155 780 l 4290 780 l 4290 720 l cp
clip
n 3150 750 m 4275 750 l gs col0 s gr gr

% arrowhead
n 4155 720 m 4275 750 l 4155 780 l 4155 750 l 4155 720 l  cp gs 0.00 setgray ef gr  col0 s
% Polyline
n 4350 2250 m 4350 1575 l gs col0 s gr 
/Times-Roman-iso ff 150.00 scf sf
1425 750 m
gs 1 -1 sc (requ\352tes) col0 sh gr
/Times-Roman-iso ff 150.00 scf sf
2475 975 m
gs 1 -1 sc (Internet) col0 sh gr
/Times-Roman-iso ff 150.00 scf sf
3375 1050 m
gs 1 -1 sc (document\(s\)) col0 sh gr
/Times-Roman-iso ff 150.00 scf sf
3450 1275 m
gs 1 -1 sc (HTML) col0 sh gr
/Times-Roman-iso ff 150.00 scf sf
3375 675 m
gs 1 -1 sc (requ\352tes) col0 sh gr
/Times-Roman-iso ff 150.00 scf sf
4275 825 m
gs 1 -1 sc (programme) col0 sh gr
/Times-Roman-iso ff 150.00 scf sf
4275 975 m
gs 1 -1 sc (serveur) col0 sh gr
/Times-Roman-iso ff 150.00 scf sf
5775 825 m
gs 1 -1 sc (Serveur ) col0 sh gr
/Times-Italic-iso ff 150.00 scf sf
5775 1020 m
gs 1 -1 sc (mysqld) col0 sh gr
/Times-Roman-iso ff 150.00 scf sf
5100 750 m
gs 1 -1 sc (SQL) col0 sh gr
/Times-Roman-iso ff 150.00 scf sf
5100 1200 m
gs 1 -1 sc (donn\351es) col0 sh gr
/Times-Roman-iso ff 150.00 scf sf
450 1050 m
gs 1 -1 sc (\(navigateur\)) col0 sh gr
/Times-Roman-iso ff 150.00 scf sf
4200 2625 m
gs 1 -1 sc (Site web avec scripts PHP et MySQL) col0 sh gr
/Times-Roman-iso ff 150.00 scf sf
375 1275 m
gs 1 -1 sc (Client HTTP) col0 sh gr
/Times-Roman-iso ff 150.00 scf sf
450 825 m
gs 1 -1 sc (Prog. client) col0 sh gr
% Polyline
n 480 675 m 375 675 375 1020 105 arcto 4 {pop} repeat
  375 1125 1095 1125 105 arcto 4 {pop} repeat
  1200 1125 1200 780 105 arcto 4 {pop} repeat
  1200 675 480 675 105 arcto 4 {pop} repeat
 cp gs col-1 s gr 
% Polyline
n 4140 600 m 4050 600 4050 2310 90 arcto 4 {pop} repeat
  4050 2400 6510 2400 90 arcto 4 {pop} repeat
  6600 2400 6600 690 90 arcto 4 {pop} repeat
  6600 600 4140 600 90 arcto 4 {pop} repeat
 cp gs col-1 s gr 
% Polyline
gs  clippath
6025 1475 m 6000 1575 l 5975 1475 l 5975 1590 l 6025 1590 l cp
5975 1225 m 6000 1125 l 6025 1225 l 6025 1110 l 5975 1110 l cp
clip
n 6000 1125 m 6000 1575 l gs col-1 s gr gr

% arrowhead
n 5975 1225 m 6000 1125 l 6025 1225 l 6000 1225 l 5975 1225 l  cp gs 0.00 setgray ef gr  col-1 s
% arrowhead
n 6025 1475 m 6000 1575 l 5975 1475 l 6000 1475 l 6025 1475 l  cp gs 0.00 setgray ef gr  col-1 s
% Polyline
gs  clippath
4675 1475 m 4650 1575 l 4625 1475 l 4625 1590 l 4675 1590 l cp
4625 1225 m 4650 1125 l 4675 1225 l 4675 1110 l 4625 1110 l cp
clip
n 4650 1125 m 4650 1575 l gs col-1 s gr gr

% arrowhead
n 4625 1225 m 4650 1125 l 4675 1225 l 4650 1225 l 4625 1225 l  cp gs 0.00 setgray ef gr  col-1 s
% arrowhead
n 4675 1475 m 4650 1575 l 4625 1475 l 4650 1475 l 4675 1475 l  cp gs 0.00 setgray ef gr  col-1 s
% Polyline
n 4327 675 m 4237 675 4237 1035 90 arcto 4 {pop} repeat
  4237 1125 4860 1125 90 arcto 4 {pop} repeat
  4950 1125 4950 765 90 arcto 4 {pop} repeat
  4950 675 4327 675 90 arcto 4 {pop} repeat
 cp gs col-1 s gr 
$F2psEnd
rs
