%!PS-Adobe-2.0 EPSF-2.0
%%Title: /home/philippe/BD/FIGURES/costrt.fig
%%Creator: fig2dev Version 3.2 Patchlevel 5-alpha5
%%CreationDate: Tue Oct 12 11:12:19 2004
%%For: philippe@pc (Philippe Rigaux)
%%BoundingBox: 0 0 308 122
%Magnification: 1.0000
%%EndComments
/$F2psDict 200 dict def
$F2psDict begin
$F2psDict /mtrx matrix put
/col-1 {0 setgray} bind def
/col0 {0.000 0.000 0.000 srgb} bind def
/col1 {0.000 0.000 1.000 srgb} bind def
/col2 {0.000 1.000 0.000 srgb} bind def
/col3 {0.000 1.000 1.000 srgb} bind def
/col4 {1.000 0.000 0.000 srgb} bind def
/col5 {1.000 0.000 1.000 srgb} bind def
/col6 {1.000 1.000 0.000 srgb} bind def
/col7 {1.000 1.000 1.000 srgb} bind def
/col8 {0.000 0.000 0.560 srgb} bind def
/col9 {0.000 0.000 0.690 srgb} bind def
/col10 {0.000 0.000 0.820 srgb} bind def
/col11 {0.530 0.810 1.000 srgb} bind def
/col12 {0.000 0.560 0.000 srgb} bind def
/col13 {0.000 0.690 0.000 srgb} bind def
/col14 {0.000 0.820 0.000 srgb} bind def
/col15 {0.000 0.560 0.560 srgb} bind def
/col16 {0.000 0.690 0.690 srgb} bind def
/col17 {0.000 0.820 0.820 srgb} bind def
/col18 {0.560 0.000 0.000 srgb} bind def
/col19 {0.690 0.000 0.000 srgb} bind def
/col20 {0.820 0.000 0.000 srgb} bind def
/col21 {0.560 0.000 0.560 srgb} bind def
/col22 {0.690 0.000 0.690 srgb} bind def
/col23 {0.820 0.000 0.820 srgb} bind def
/col24 {0.500 0.190 0.000 srgb} bind def
/col25 {0.630 0.250 0.000 srgb} bind def
/col26 {0.750 0.380 0.000 srgb} bind def
/col27 {1.000 0.500 0.500 srgb} bind def
/col28 {1.000 0.630 0.630 srgb} bind def
/col29 {1.000 0.750 0.750 srgb} bind def
/col30 {1.000 0.880 0.880 srgb} bind def
/col31 {1.000 0.840 0.000 srgb} bind def

end
save
newpath 0 122 moveto 0 0 lineto 308 0 lineto 308 122 lineto closepath clip newpath
-8.3 134.3 translate
1 -1 scale

/cp {closepath} bind def
/ef {eofill} bind def
/gr {grestore} bind def
/gs {gsave} bind def
/sa {save} bind def
/rs {restore} bind def
/l {lineto} bind def
/m {moveto} bind def
/rm {rmoveto} bind def
/n {newpath} bind def
/s {stroke} bind def
/sh {show} bind def
/slc {setlinecap} bind def
/slj {setlinejoin} bind def
/slw {setlinewidth} bind def
/srgb {setrgbcolor} bind def
/rot {rotate} bind def
/sc {scale} bind def
/sd {setdash} bind def
/ff {findfont} bind def
/sf {setfont} bind def
/scf {scalefont} bind def
/sw {stringwidth} bind def
/tr {translate} bind def
/tnt {dup dup currentrgbcolor
  4 -2 roll dup 1 exch sub 3 -1 roll mul add
  4 -2 roll dup 1 exch sub 3 -1 roll mul add
  4 -2 roll dup 1 exch sub 3 -1 roll mul add srgb}
  bind def
/shd {dup dup currentrgbcolor 4 -2 roll mul 4 -2 roll mul
  4 -2 roll mul srgb} bind def
/reencdict 12 dict def /ReEncode { reencdict begin
/newcodesandnames exch def /newfontname exch def /basefontname exch def
/basefontdict basefontname findfont def /newfont basefontdict maxlength dict def
basefontdict { exch dup /FID ne { dup /Encoding eq
{ exch dup length array copy newfont 3 1 roll put }
{ exch newfont 3 1 roll put } ifelse } { pop pop } ifelse } forall
newfont /FontName newfontname put newcodesandnames aload pop
128 1 255 { newfont /Encoding get exch /.notdef put } for
newcodesandnames length 2 idiv { newfont /Encoding get 3 1 roll put } repeat
newfontname newfont definefont pop end } def
/isovec [
8#055 /minus 8#200 /grave 8#201 /acute 8#202 /circumflex 8#203 /tilde
8#204 /macron 8#205 /breve 8#206 /dotaccent 8#207 /dieresis
8#210 /ring 8#211 /cedilla 8#212 /hungarumlaut 8#213 /ogonek 8#214 /caron
8#220 /dotlessi 8#230 /oe 8#231 /OE
8#240 /space 8#241 /exclamdown 8#242 /cent 8#243 /sterling
8#244 /currency 8#245 /yen 8#246 /brokenbar 8#247 /section 8#250 /dieresis
8#251 /copyright 8#252 /ordfeminine 8#253 /guillemotleft 8#254 /logicalnot
8#255 /hyphen 8#256 /registered 8#257 /macron 8#260 /degree 8#261 /plusminus
8#262 /twosuperior 8#263 /threesuperior 8#264 /acute 8#265 /mu 8#266 /paragraph
8#267 /periodcentered 8#270 /cedilla 8#271 /onesuperior 8#272 /ordmasculine
8#273 /guillemotright 8#274 /onequarter 8#275 /onehalf
8#276 /threequarters 8#277 /questiondown 8#300 /Agrave 8#301 /Aacute
8#302 /Acircumflex 8#303 /Atilde 8#304 /Adieresis 8#305 /Aring
8#306 /AE 8#307 /Ccedilla 8#310 /Egrave 8#311 /Eacute
8#312 /Ecircumflex 8#313 /Edieresis 8#314 /Igrave 8#315 /Iacute
8#316 /Icircumflex 8#317 /Idieresis 8#320 /Eth 8#321 /Ntilde 8#322 /Ograve
8#323 /Oacute 8#324 /Ocircumflex 8#325 /Otilde 8#326 /Odieresis 8#327 /multiply
8#330 /Oslash 8#331 /Ugrave 8#332 /Uacute 8#333 /Ucircumflex
8#334 /Udieresis 8#335 /Yacute 8#336 /Thorn 8#337 /germandbls 8#340 /agrave
8#341 /aacute 8#342 /acircumflex 8#343 /atilde 8#344 /adieresis 8#345 /aring
8#346 /ae 8#347 /ccedilla 8#350 /egrave 8#351 /eacute
8#352 /ecircumflex 8#353 /edieresis 8#354 /igrave 8#355 /iacute
8#356 /icircumflex 8#357 /idieresis 8#360 /eth 8#361 /ntilde 8#362 /ograve
8#363 /oacute 8#364 /ocircumflex 8#365 /otilde 8#366 /odieresis 8#367 /divide
8#370 /oslash 8#371 /ugrave 8#372 /uacute 8#373 /ucircumflex
8#374 /udieresis 8#375 /yacute 8#376 /thorn 8#377 /ydieresis] def
/Times-Roman /Times-Roman-iso isovec ReEncode
 /DrawEllipse {
	/endangle exch def
	/startangle exch def
	/yrad exch def
	/xrad exch def
	/y exch def
	/x exch def
	/savematrix mtrx currentmatrix def
	x y tr xrad yrad sc 0 0 1 startangle endangle arc
	closepath
	savematrix setmatrix
	} def

/$F2psBegin {$F2psDict begin /$F2psEnteredState save def} def
/$F2psEnd {$F2psEnteredState restore end} def

$F2psBegin
10 setmiterlimit
0 slj 0 slc
 0.06000 0.06000 sc
%
% Fig objects follow
%
% 
% here starts figure with depth 50
/Times-Roman-iso ff 166.67 scf sf
750 2175 m
gs 1 -1 sc (Un fen\352trage) col0 sh gr
/Times-Roman-iso ff 166.67 scf sf
3450 2175 m
gs 1 -1 sc (Le point\351 \351quivalent) col0 sh gr
/Times-Roman-iso ff 166.67 scf sf
1425 1350 m
gs 1 -1 sc (w1) col0 sh gr
/Times-Roman-iso ff 166.67 scf sf
1800 900 m
gs 1 -1 sc (w2) col0 sh gr
/Times-Roman-iso ff 166.67 scf sf
1275 750 m
gs 1 -1 sc (N) col0 sh gr
/Times-Roman-iso ff 166.67 scf sf
1725 525 m
gs 1 -1 sc (Wx) col0 sh gr
/Times-Roman-iso ff 166.67 scf sf
2175 825 m
gs 1 -1 sc (Wy) col0 sh gr
/Times-Roman-iso ff 166.67 scf sf
4650 600 m
gs 1 -1 sc (P) col0 sh gr
/Times-Roman-iso ff 166.67 scf sf
4650 1350 m
gs 1 -1 sc (Wx) col0 sh gr
/Times-Roman-iso ff 166.67 scf sf
3525 675 m
gs 1 -1 sc (Wy) col0 sh gr
% here ends figure;
% 
% here starts figure with depth 1
% Polyline
0 slj
0 slc
7.500 slw
n 450 1350 m 750 1350 l 750 1725 l 450 1725 l
 cp gs col7 0.50 shd ef gr gs col0 s gr 
% Polyline
n 225 450 m 600 450 l 600 750 l 225 750 l
 cp gs col7 0.50 shd ef gr gs col0 s gr 
% Polyline
n 1201 826 m 1726 826 l 1726 1126 l 1201 1126 l
 cp gs col7 0.50 shd ef gr gs col0 s gr 
% Polyline
n 1725 1650 m 2325 1650 l 2325 1500 l 1725 1500 l
 cp gs col7 0.50 shd ef gr gs col0 s gr 
% Polyline
n 3150 1350 m 3450 1350 l 3450 1725 l 3150 1725 l
 cp gs col7 0.50 shd ef gr gs col0 s gr 
% Polyline
n 2925 450 m 3300 450 l 3300 750 l 2925 750 l
 cp gs col7 0.50 shd ef gr gs col0 s gr 
% Polyline
n 3901 826 m 4426 826 l 4426 1126 l 3901 1126 l
 cp gs col7 0.50 shd ef gr gs col0 s gr 
% Polyline
n 4425 1650 m 5025 1650 l 5025 1500 l 4425 1500 l
 cp gs col7 0.50 shd ef gr gs col0 s gr 
% Ellipse
 [60] 0 sd
n 2100 601 24 24 0 360 DrawEllipse gs col7 0.00 shd ef gr gs col-1 s gr
 [] 0 sd
% Ellipse
 [60] 0 sd
n 1351 1051 24 24 0 360 DrawEllipse gs col7 0.00 shd ef gr gs col-1 s gr
 [] 0 sd
% Ellipse
 [60] 0 sd
n 4800 601 24 24 0 360 DrawEllipse gs col7 0.00 shd ef gr gs col-1 s gr
 [] 0 sd
% Ellipse
 [60] 0 sd
n 4051 1051 24 24 0 360 DrawEllipse gs col7 0.00 shd ef gr gs col-1 s gr
 [] 0 sd
% Polyline
 [60] 0 sd
n 1051 1051 m 1351 1051 l 1351 1276 l 1051 1276 l
 cp gs col-1 s gr  [] 0 sd
% Polyline
 [60] 0 sd
n 1576 601 m 2101 601 l 2101 976 l 1576 976 l
 cp gs col-1 s gr  [] 0 sd
% Polyline
n 150 226 m 2551 226 l 2551 1875 l 150 1875 l
 cp gs col-1 s gr 
% Polyline
n 2850 226 m 5251 226 l 5251 1875 l 2850 1875 l
 cp gs col-1 s gr 
% Polyline
 [60] 0 sd
gs  clippath
4798 1230 m 4966 1230 l 4966 1170 l 4798 1170 l 4798 1170 l 4918 1200 l 4798 1230 l cp
4579 1170 m 4411 1170 l 4411 1230 l 4579 1230 l 4579 1230 l 4459 1200 l 4579 1170 l cp
eoclip
n 4426 1200 m
 4951 1200 l gs col7 0.00 shd ef gr gs col-1 s gr gr
 [] 0 sd
% arrowhead
n 4579 1170 m 4459 1200 l 4579 1230 l  col-1 s
% arrowhead
n 4798 1230 m 4918 1200 l 4798 1170 l  col-1 s
% Polyline
 [60] 0 sd
n 3900 457 m 4942 457 l 4942 1125 l 3900 1125 l
 cp gs col-1 s gr  [] 0 sd
% Polyline
 [60] 0 sd
gs  clippath
3795 673 m 3795 841 l 3855 841 l 3855 673 l 3855 673 l 3825 793 l 3795 673 l cp
3855 604 m 3855 436 l 3795 436 l 3795 604 l 3795 604 l 3825 484 l 3855 604 l cp
eoclip
n 3825 451 m
 3825 826 l gs col7 0.00 shd ef gr gs col-1 s gr gr
 [] 0 sd
% arrowhead
n 3855 604 m 3825 484 l 3795 604 l  col-1 s
% arrowhead
n 3795 673 m 3825 793 l 3855 673 l  col-1 s
% here ends figure;
$F2psEnd
rs
showpage
%%Trailer
%EOF
