%!PS-Adobe-2.0 EPSF-2.0
%%Title: driver-jdbc.eps
%%Creator: fig2dev Version 3.2 Patchlevel 0-beta3
%%CreationDate: Tue Dec  7 14:53:24 1999
%%For: rigaux@vespucci (Philippe Rigaux)
%%Orientation: Portrait
%%BoundingBox: 0 0 312 134
%%Pages: 0
%%BeginSetup
%%EndSetup
%%Magnification: 1.0000
%%EndComments
/$F2psDict 200 dict def
$F2psDict begin
$F2psDict /mtrx matrix put
/col-1 {0 setgray} bind def
/col0 {0.000 0.000 0.000 srgb} bind def
/col1 {0.000 0.000 1.000 srgb} bind def
/col2 {0.000 1.000 0.000 srgb} bind def
/col3 {0.000 1.000 1.000 srgb} bind def
/col4 {1.000 0.000 0.000 srgb} bind def
/col5 {1.000 0.000 1.000 srgb} bind def
/col6 {1.000 1.000 0.000 srgb} bind def
/col7 {1.000 1.000 1.000 srgb} bind def
/col8 {0.000 0.000 0.560 srgb} bind def
/col9 {0.000 0.000 0.690 srgb} bind def
/col10 {0.000 0.000 0.820 srgb} bind def
/col11 {0.530 0.810 1.000 srgb} bind def
/col12 {0.000 0.560 0.000 srgb} bind def
/col13 {0.000 0.690 0.000 srgb} bind def
/col14 {0.000 0.820 0.000 srgb} bind def
/col15 {0.000 0.560 0.560 srgb} bind def
/col16 {0.000 0.690 0.690 srgb} bind def
/col17 {0.000 0.820 0.820 srgb} bind def
/col18 {0.560 0.000 0.000 srgb} bind def
/col19 {0.690 0.000 0.000 srgb} bind def
/col20 {0.820 0.000 0.000 srgb} bind def
/col21 {0.560 0.000 0.560 srgb} bind def
/col22 {0.690 0.000 0.690 srgb} bind def
/col23 {0.820 0.000 0.820 srgb} bind def
/col24 {0.500 0.190 0.000 srgb} bind def
/col25 {0.630 0.250 0.000 srgb} bind def
/col26 {0.750 0.380 0.000 srgb} bind def
/col27 {1.000 0.500 0.500 srgb} bind def
/col28 {1.000 0.630 0.630 srgb} bind def
/col29 {1.000 0.750 0.750 srgb} bind def
/col30 {1.000 0.880 0.880 srgb} bind def
/col31 {1.000 0.840 0.000 srgb} bind def

end
save
-26.0 151.0 translate
1 -1 scale

/cp {closepath} bind def
/ef {eofill} bind def
/gr {grestore} bind def
/gs {gsave} bind def
/sa {save} bind def
/rs {restore} bind def
/l {lineto} bind def
/m {moveto} bind def
/rm {rmoveto} bind def
/n {newpath} bind def
/s {stroke} bind def
/sh {show} bind def
/slc {setlinecap} bind def
/slj {setlinejoin} bind def
/slw {setlinewidth} bind def
/srgb {setrgbcolor} bind def
/rot {rotate} bind def
/sc {scale} bind def
/sd {setdash} bind def
/ff {findfont} bind def
/sf {setfont} bind def
/scf {scalefont} bind def
/sw {stringwidth} bind def
/tr {translate} bind def
/tnt {dup dup currentrgbcolor
  4 -2 roll dup 1 exch sub 3 -1 roll mul add
  4 -2 roll dup 1 exch sub 3 -1 roll mul add
  4 -2 roll dup 1 exch sub 3 -1 roll mul add srgb}
  bind def
/shd {dup dup currentrgbcolor 4 -2 roll mul 4 -2 roll mul
  4 -2 roll mul srgb} bind def
 /DrawEllipse {
	/endangle exch def
	/startangle exch def
	/yrad exch def
	/xrad exch def
	/y exch def
	/x exch def
	/savematrix mtrx currentmatrix def
	x y tr xrad yrad sc 0 0 1 startangle endangle arc
	closepath
	savematrix setmatrix
	} def

/$F2psBegin {$F2psDict begin /$F2psEnteredState save def} def
/$F2psEnd {$F2psEnteredState restore end} def
%%EndProlog

$F2psBegin
10 setmiterlimit
n -1000 3515 m -1000 -1000 l 6633 -1000 l 6633 3515 l cp clip
 0.06000 0.06000 sc
/Times-Roman ff 120.00 scf sf
1950 1425 m
gs 1 -1 sc (Driver) col0 sh gr
/Times-Roman ff 120.00 scf sf
1950 1575 m
gs 1 -1 sc (SYBASE) col0 sh gr
% Polyline
7.500 slw
n 1875 1275 m 2475 1275 l 2475 1650 l 1875 1650 l cp gs col0 s gr 
/Times-Roman ff 120.00 scf sf
1950 900 m
gs 1 -1 sc (Driver) col0 sh gr
/Times-Roman ff 120.00 scf sf
1950 1050 m
gs 1 -1 sc (ORACLE) col0 sh gr
% Polyline
n 1875 750 m 2475 750 l 2475 1125 l 1875 1125 l cp gs col0 s gr 
/Times-Roman ff 120.00 scf sf
1125 825 m
gs 1 -1 sc (Connexion) col0 sh gr
/Times-Roman ff 120.00 scf sf
1125 975 m
gs 1 -1 sc (ORACLE) col0 sh gr
/Times-Roman ff 120.00 scf sf
600 1125 m
gs 1 -1 sc (Requetes) col0 sh gr
/Times-Roman ff 120.00 scf sf
1125 1500 m
gs 1 -1 sc (Connexion) col0 sh gr
/Times-Roman ff 120.00 scf sf
1125 1650 m
gs 1 -1 sc (SYBASE) col0 sh gr
% Ellipse
n 4875 600 750 225 0 360 DrawEllipse gs col0 s gr

/Times-Roman ff 150.00 scf sf
4350 675 m
gs 1 -1 sc (Serveur ORACLE) col0 sh gr
% Ellipse
n 3525 600 53 53 0 360 DrawEllipse gs col7 0.00 shd ef gr gs col0 s gr

% Polyline
n 3825 300 m 3525 300 l 3525 900 l 3825 900 l gs col0 s gr 
% Polyline
gs  clippath
3978 570 m 4098 600 l 3978 630 l 4140 630 l 4140 570 l cp
3747 630 m 3627 600 l 3747 570 l 3585 570 l 3585 630 l cp
clip
n 3600 600 m 4125 600 l gs col0 s gr gr

% arrowhead
n 3747 630 m 3627 600 l 3747 570 l 3747 600 l 3747 630 l  cp gs 0.00 setgray ef gr  col0 s
% arrowhead
n 3978 570 m 4098 600 l 3978 630 l 3978 600 l 3978 570 l  cp gs 0.00 setgray ef gr  col0 s
% Ellipse
n 4875 1875 750 225 0 360 DrawEllipse gs col0 s gr

/Times-Roman ff 150.00 scf sf
4350 1950 m
gs 1 -1 sc (Serveur SYBASE) col0 sh gr
% Ellipse
n 2533 925 53 53 0 360 DrawEllipse gs col7 0.00 shd ef gr gs col0 s gr

% Ellipse
n 2550 1500 53 53 0 360 DrawEllipse gs col7 0.00 shd ef gr gs col0 s gr

% Ellipse
n 3525 1875 53 53 0 360 DrawEllipse gs col7 0.00 shd ef gr gs col0 s gr

% Polyline
n 1830 675 m 1725 675 1725 1695 105 arcto 4 {pop} repeat
  1725 1800 2445 1800 105 arcto 4 {pop} repeat
  2550 1800 2550 780 105 arcto 4 {pop} repeat
  2550 675 1830 675 105 arcto 4 {pop} repeat
 cp gs col0 s gr 
% Polyline
gs  clippath
1197 1080 m 1077 1050 l 1197 1020 l 1035 1020 l 1035 1080 l cp
1728 1020 m 1848 1050 l 1728 1080 l 1890 1080 l 1890 1020 l cp
clip
n 1875 1050 m 1050 1050 l gs col0 s gr gr

% arrowhead
n 1728 1020 m 1848 1050 l 1728 1080 l 1728 1050 l 1728 1020 l  cp gs 0.00 setgray ef gr  col0 s
% arrowhead
n 1197 1080 m 1077 1050 l 1197 1020 l 1197 1050 l 1197 1080 l  cp gs 0.00 setgray ef gr  col0 s
% Polyline
gs  clippath
1197 1305 m 1077 1275 l 1197 1245 l 1035 1245 l 1035 1305 l cp
1728 1245 m 1848 1275 l 1728 1305 l 1890 1305 l 1890 1245 l cp
clip
n 1875 1275 m 1050 1275 l gs col0 s gr gr

% arrowhead
n 1728 1245 m 1848 1275 l 1728 1305 l 1728 1275 l 1728 1245 l  cp gs 0.00 setgray ef gr  col0 s
% arrowhead
n 1197 1305 m 1077 1275 l 1197 1245 l 1197 1275 l 1197 1305 l  cp gs 0.00 setgray ef gr  col0 s
% Polyline
n 555 375 m 450 375 450 2070 105 arcto 4 {pop} repeat
  450 2175 2595 2175 105 arcto 4 {pop} repeat
  2700 2175 2700 480 105 arcto 4 {pop} repeat
  2700 375 555 375 105 arcto 4 {pop} repeat
 cp gs col0 s gr 
% Polyline
n 3825 1575 m 3525 1575 l 3525 2175 l 3825 2175 l gs col0 s gr 
% Polyline
gs  clippath
3978 1845 m 4098 1875 l 3978 1905 l 4140 1905 l 4140 1845 l cp
3747 1905 m 3627 1875 l 3747 1845 l 3585 1845 l 3585 1905 l cp
clip
n 3600 1875 m 4125 1875 l gs col0 s gr gr

% arrowhead
n 3747 1905 m 3627 1875 l 3747 1845 l 3747 1875 l 3747 1905 l  cp gs 0.00 setgray ef gr  col0 s
% arrowhead
n 3978 1845 m 4098 1875 l 3978 1905 l 3978 1875 l 3978 1845 l  cp gs 0.00 setgray ef gr  col0 s
% Polyline
n 2550 1500 m 3525 1875 l gs col0 s gr 
% Polyline
n 2550 900 m 3525 600 l gs col0 s gr 
/Times-Roman ff 120.00 scf sf
1725 600 m
gs 1 -1 sc (DriverManager) col0 sh gr
/Times-Roman ff 120.00 scf sf
600 1275 m
gs 1 -1 sc (SQL) col0 sh gr
/Times-Roman ff 150.00 scf sf
2925 1350 m
gs 1 -1 sc (Reseau) col0 sh gr
/Times-Roman ff 150.00 scf sf
4125 2475 m
gs 1 -1 sc (Les SGBD serveurs) col0 sh gr
/Times-Roman ff 150.00 scf sf
900 2475 m
gs 1 -1 sc (Applet Java avec JDBC) col0 sh gr
$F2psEnd
rs
