#FIG 3.2
Portrait
Center
Inches
Letter  
100.00
Single
-2
1200 2
6 2326 751 2626 976
2 1 0 1 -1 7 0 0 -1 0.000 0 0 -1 0 0 4
	 2327 752 2552 902 2552 752 2327 902
2 1 0 1 -1 7 0 0 -1 0.000 0 0 -1 0 0 2
	 2327 752 2327 902
-6
2 1 0 1 -1 7 0 0 -1 0.000 0 0 -1 0 0 2
	 3975 975 3976 1126
2 1 0 1 -1 7 0 0 -1 0.000 0 0 -1 0 0 2
	 5175 975 5176 1126
2 1 0 1 -1 7 0 0 -1 0.000 0 0 -1 0 0 2
	 4114 733 4275 600
2 1 0 1 -1 7 0 0 -1 0.000 0 0 -1 0 0 2
	 5175 750 4950 600
2 1 0 1 -1 7 0 0 -1 0.000 0 0 -1 0 0 2
	 2251 976 2026 1201
2 1 0 1 -1 7 0 0 -1 0.000 0 0 -1 0 0 2
	 2626 976 2926 1201
2 1 0 1 -1 7 0 0 -1 0.000 0 0 -1 0 0 2
	 2431 511 2431 736
2 2 0 1 -1 7 0 0 -1 0.000 0 0 0 0 0 5
	 3525 1126 4501 1126 4501 1350 3525 1350 3525 1126
2 2 0 1 -1 7 0 0 -1 0.000 0 0 0 0 0 5
	 3750 750 4200 750 4200 975 3750 975 3750 750
2 2 0 1 -1 7 0 0 -1 0.000 0 0 0 0 0 5
	 4875 750 5325 750 5325 975 4875 975 4875 750
2 1 0 1 -1 7 0 0 -1 0.000 0 0 -1 0 0 2
	 4575 375 4575 450
2 2 0 1 -1 7 0 0 -1 0.000 0 0 0 0 0 5
	 4575 1126 5775 1126 5775 1350 4575 1350 4575 1126
2 2 0 1 -1 7 0 0 -1 0.000 0 0 0 0 0 5
	 4275 150 4950 150 4950 375 4275 375 4275 150
2 2 0 1 -1 7 0 0 -1 0.000 0 0 0 0 0 5
	 4275 450 4950 450 4950 675 4275 675 4275 450
4 0 0 100 0 1 10 0.0000 2 135 285 600 1725 SQL\001
4 0 0 100 0 1 10 0.0000 2 135 465 2100 1725 Algebra\001
4 0 -1 0 0 32 10 0.0000 4 75 75 2401 451 p\001
4 0 0 100 0 1 10 0.0000 2 135 285 4500 1725 QEP\001
4 0 0 100 0 1 10 0.0000 2 105 255 3825 900 Sort\001
4 0 0 100 0 1 10 0.0000 2 135 375 4350 600 Merge\001
4 0 0 100 0 1 10 0.0000 2 135 420 4350 300 Project\001
4 0 0 100 0 1 10 0.0000 2 105 255 4950 900 Sort\001
4 0 0 100 0 1 10 0.0000 2 135 1905 150 675 {\\bf select} {\\it sname, cname}\001
4 0 0 100 0 1 10 0.0000 2 135 2145 150 900 {\\bf from} {\\it states s, counties c}\001
4 0 0 100 0 1 10 0.0000 2 135 1860 150 1125 {\\bf where} {\\it s.id = c.state}\001
4 0 0 100 0 1 10 0.0000 2 135 660 1876 1351 {\\it states}\001
4 0 0 100 0 1 10 0.0000 2 135 825 2701 1351 {\\it counties}\001
4 0 0 100 0 1 10 0.0000 2 135 1035 3600 1275 Scan({\\it states})\001
4 0 0 100 0 1 10 0.0000 2 135 1200 4650 1275 Scan({\\it counties)}\001
