#FIG 3.2
Portrait
Center
Inches
A4      
100.00
Single
-2
1200 2
5 1 0 1 0 7 100 0 -1 0.000 0 0 0 0 3375.000 1068.750 3150 975 3375 825 3600 975
5 1 0 1 0 7 100 0 -1 0.000 0 1 0 0 1575.000 2156.250 1350 2250 1575 2400 1800 2250
6 3600 2475 4425 3525
2 1 0 1 -1 7 0 0 -1 0.000 0 0 -1 0 0 2
	 3600 2775 4425 2775
2 4 0 1 -1 7 0 0 -1 0.000 0 0 7 0 0 5
	 4425 3525 4425 2475 3600 2475 3600 3525 4425 3525
4 0 0 100 0 0 10 0.0000 4 135 285 3825 2700 Pays\001
4 0 0 100 0 0 10 0.0000 4 75 270 3750 3225 nom\001
4 0 0 100 0 0 10 0.0000 4 135 405 3750 3450 langue\001
4 0 0 100 0 2 10 0.0000 2 105 330 3750 3000 code\001
-6
2 1 0 1 -1 7 0 0 -1 0.000 0 0 -1 0 0 2
	 375 600 1425 600
2 1 0 1 0 7 100 0 -1 0.000 0 0 -1 0 0 3
	 1425 975 2475 975 2475 1350
2 1 0 1 -1 7 0 0 -1 0.000 0 0 -1 0 0 2
	 4050 600 5175 600
2 1 0 1 -1 7 0 0 -1 0.000 0 0 -1 0 0 2
	 2251 1651 3076 1651
2 1 0 1 0 7 100 0 -1 0.000 0 0 -1 0 0 3
	 2850 1350 2850 825 4050 825
2 2 0 1 0 7 100 0 -1 0.000 0 0 7 0 0 5
	 3075 975 3675 975 3675 1200 3075 1200 3075 975
2 2 0 1 0 7 100 0 -1 0.000 0 0 7 0 0 5
	 1275 2400 1875 2400 1875 2625 1275 2625 1275 2400
2 4 0 1 -1 7 0 0 -1 0.000 0 0 7 0 0 5
	 1425 1575 1425 300 375 300 375 1575 1425 1575
2 1 0 1 0 7 100 0 -1 0.000 0 0 -1 0 0 3
	 1050 1575 1050 2250 2250 2250
2 4 0 1 -1 7 0 0 -1 0.000 0 0 7 0 0 5
	 5175 1800 5175 300 4050 300 4050 1800 5175 1800
2 1 0 1 0 7 100 0 -1 0.000 0 0 -1 0 0 3
	 2625 2775 2625 3225 3600 3225
2 4 0 1 -1 7 0 0 -1 0.000 0 0 7 0 0 5
	 3076 2775 3076 1351 2250 1351 2250 2775 3076 2775
4 0 0 100 0 0 10 0.0000 6 105 465 525 525 Artiste\001
4 0 0 100 0 0 10 0.0000 6 75 270 4200 1050 nom\001
4 0 -1 0 0 -1 10 0.0000 4 150 435 4200 1275 pr\351nom\001
4 0 0 100 0 2 10 0.0000 2 120 360 4200 825 email\001
4 0 0 100 0 0 10 0.0000 6 105 645 4200 525 Internaute\001
4 0 0 100 0 0 10 0.0000 6 105 315 2476 1576 Film\001
4 0 0 100 0 0 10 0.0000 6 90 270 3225 1125 note\001
4 0 0 100 0 3 10 0.0000 2 105 960 3075 750 Donne une note\001
4 0 -1 0 0 -1 10 0.0000 4 150 435 450 1275 pr\351nom\001
4 0 -1 0 0 -1 10 0.0000 4 75 270 450 1050 nom\001
4 0 0 100 0 2 10 0.0000 2 120 135 450 825 id\001
4 0 0 100 0 3 10 0.0000 2 120 465 1500 900 R\351alise\001
4 0 -1 0 0 -1 10 0.0000 4 150 225 1425 2550 r\364le\001
4 0 0 100 0 0 10 0.0000 4 135 825 4200 1500 motDePpasse\001
4 0 0 100 0 0 10 0.0000 4 150 900 4200 1725 ann\351eNaissance\001
4 0 0 100 0 0 10 0.0000 4 150 900 450 1500 ann\351eNaissance\001
4 0 0 100 0 3 10 0.0000 2 105 285 750 1950 Joue\001
4 0 0 50 0 0 10 0.0000 4 105 240 1125 1725 0..*\001
4 0 0 50 0 0 10 0.0000 4 105 240 2025 2175 0..*\001
4 0 0 50 0 0 10 0.0000 4 105 240 2250 1275 0..*\001
4 0 0 50 0 0 10 0.0000 4 105 240 1500 1125 0..1\001
4 0 0 50 0 0 10 0.0000 4 45 75 2925 1275 *\001
4 0 0 50 0 0 10 0.0000 4 45 75 3900 975 *\001
4 0 0 50 0 0 10 0.0000 4 105 240 3375 3150 1..1\001
4 0 0 50 0 0 10 0.0000 4 45 75 2700 3000 *\001
4 0 0 100 0 0 10 0.0000 4 150 420 2400 2700 r\351sum\351\001
4 0 0 100 0 0 10 0.0000 4 105 330 2400 2475 genre\001
4 0 0 100 0 0 10 0.0000 6 150 330 2400 2250 ann\351e\001
4 0 0 100 0 2 10 0.0000 2 120 135 2400 1800 id\001
4 0 0 50 0 0 10 0.0000 4 105 285 2400 2025 titre\001
