#FIG 3.2
Landscape
Center
Inches
A4      
100.00
Single
-2
1200 2
6 375 1800 825 2250
2 1 0 1 0 7 100 0 -1 0.000 0 0 -1 0 0 2
	 375 2025 825 2025
2 2 0 1 0 7 100 0 -1 0.000 0 0 -1 0 0 5
	 375 1800 825 1800 825 2250 375 2250 375 1800
4 0 0 100 0 0 10 0.0000 4 105 75 525 1950 0\001
4 0 0 100 0 0 10 0.0000 4 105 75 525 2175 1\001
-6
6 1575 1875 2475 2700
2 2 0 1 0 7 100 0 -1 0.000 0 0 -1 0 0 5
	 1575 1875 2475 1875 2475 2700 1575 2700 1575 1875
4 0 0 100 0 0 10 0.0000 4 105 390 1650 2100 Brazil\001
4 0 0 100 0 0 10 0.0000 4 105 705 1650 2325 Twin Peaks\001
-6
6 1575 975 2475 1800
2 2 0 1 0 7 100 0 -1 0.000 0 0 -1 0 0 5
	 1575 975 2475 975 2475 1800 1575 1800 1575 975
4 0 0 100 0 0 10 0.0000 4 135 825 1650 1575 Underground\001
4 0 0 100 0 0 10 0.0000 4 135 660 1650 1350 Easy Rider\001
4 0 0 100 0 0 10 0.0000 4 135 495 1650 1125 Vertigo\001
-6
2 1 0 1 0 7 100 0 -1 0.000 0 0 -1 1 0 4
	1 1 1.00 60.00 120.00
	 825 1950 1200 1950 1200 1350 1575 1350
2 1 0 1 0 7 100 0 -1 0.000 0 0 -1 1 0 4
	1 1 1.00 60.00 120.00
	 825 2175 1200 2175 1200 2325 1575 2325
2 4 0 0 0 7 300 0 20 0.000 0 0 7 0 0 5
	 2550 2850 2550 900 225 900 225 2850 2550 2850
