#FIG 3.2
Landscape
Center
Metric
A4      
100.00
Single
-2
1200 2
6 2610 675 4815 1530
2 1 0 1 0 7 50 0 -1 0.000 0 0 -1 0 0 2
	 2610 1080 4770 1080
2 2 0 1 0 7 50 0 -1 0.000 0 0 -1 0 0 5
	 2790 675 3240 675 3240 1080 2790 1080 2790 675
2 2 0 1 0 7 50 0 -1 0.000 0 0 -1 0 0 5
	 3915 675 4185 675 4185 1080 3915 1080 3915 675
2 2 0 1 0 7 50 0 -1 0.000 0 0 -1 0 0 5
	 4185 675 4680 675 4680 1080 4185 1080 4185 675
2 2 0 1 0 7 50 0 -1 0.000 0 0 -1 0 0 5
	 3510 675 3915 675 3915 1080 3510 1080 3510 675
2 2 0 1 0 7 50 0 -1 0.000 0 0 -1 0 0 5
	 3240 675 3510 675 3510 1080 3240 1080 3240 675
4 0 0 50 0 0 10 0.0000 4 105 75 2745 1215 0\001
4 0 0 50 0 0 10 0.0000 4 105 225 4590 1215 100\001
4 0 0 50 0 0 10 0.0000 4 105 150 3150 1215 42\001
4 0 0 50 0 0 10 0.0000 4 105 150 2970 945 20\001
4 0 0 50 0 0 10 0.0000 4 105 150 3330 945 20\001
4 0 0 50 0 0 10 0.0000 4 105 150 3600 945 20\001
4 0 0 50 0 0 10 0.0000 4 105 150 4005 945 20\001
4 0 0 50 0 0 10 0.0000 4 105 150 4365 945 20\001
4 0 0 50 0 0 10 0.0000 4 105 150 3420 1215 61\001
4 0 0 50 0 0 10 0.0000 4 105 150 3825 1215 70\001
4 0 0 50 0 0 10 0.0000 4 135 1725 2880 1485 (b) Histogramme en largeur\001
4 0 0 50 0 0 10 0.0000 4 105 150 4140 1215 90\001
-6
2 1 0 1 0 7 50 0 -1 0.000 0 0 -1 0 0 2
	 270 1080 2430 1080
2 2 0 1 0 7 50 0 -1 0.000 0 0 -1 0 0 5
	 450 675 630 675 630 1080 450 1080 450 675
2 2 0 1 0 7 50 0 -1 0.000 0 0 -1 0 0 5
	 630 945 810 945 810 1080 630 1080 630 945
2 2 0 1 0 7 50 0 -1 0.000 0 0 -1 0 0 5
	 810 495 990 495 990 1080 810 1080 810 495
2 2 0 1 0 7 50 0 -1 0.000 0 0 -1 0 0 5
	 990 315 1170 315 1170 1080 990 1080 990 315
2 2 0 1 0 7 50 0 -1 0.000 0 0 -1 0 0 5
	 1170 990 1350 990 1350 1080 1170 1080 1170 990
2 2 0 1 0 7 50 0 -1 0.000 0 0 -1 0 0 5
	 1350 135 1530 135 1530 1080 1350 1080 1350 135
2 2 0 1 0 7 50 0 -1 0.000 0 0 -1 0 0 5
	 1530 765 1710 765 1710 1080 1530 1080 1530 765
2 2 0 1 0 7 50 0 -1 0.000 0 0 -1 0 0 5
	 1710 585 1890 585 1890 1080 1710 1080 1710 585
2 2 0 1 0 7 50 0 -1 0.000 0 0 -1 0 0 5
	 1890 405 2070 405 2070 1080 1890 1080 1890 405
2 2 0 1 0 7 50 0 -1 0.000 0 0 -1 0 0 5
	 2070 765 2250 765 2250 1080 2070 1080 2070 765
4 0 0 50 0 0 10 0.0000 4 105 150 540 1215 10\001
4 0 0 50 0 0 10 0.0000 4 105 75 405 1215 0\001
4 0 0 50 0 0 10 0.0000 4 105 150 765 1215 20\001
4 0 0 50 0 0 10 0.0000 4 105 150 945 1215 30\001
4 0 0 50 0 0 10 0.0000 4 105 150 1125 1215 40\001
4 0 0 50 0 0 10 0.0000 4 105 150 1305 1215 50\001
4 0 0 50 0 0 10 0.0000 4 105 150 1485 1215 60\001
4 0 0 50 0 0 10 0.0000 4 105 150 1665 1215 70\001
4 0 0 50 0 0 10 0.0000 4 105 150 1845 1215 80\001
4 0 0 50 0 0 10 0.0000 4 105 150 2025 1215 90\001
4 0 0 50 0 0 10 0.0000 4 105 225 2205 1215 100\001
4 0 0 50 0 0 10 0.0000 4 105 75 1755 540 8\001
4 0 0 50 0 0 10 0.0000 4 135 1725 540 1485 (a) Histogramme en hauteur\001
4 0 0 50 0 0 10 0.0000 4 105 150 1890 360 12\001
