%!PS-Adobe-2.0 EPSF-2.0
%%Title: idxdense.eps
%%Creator: fig2dev Version 3.2 Patchlevel 1
%%CreationDate: Mon May 28 08:15:25 2001
%%For: rigaux@cartier ()
%%Orientation: Portrait
%%BoundingBox: 0 0 210 246
%%Pages: 0
%%BeginSetup
%%EndSetup
%%Magnification: 1.0000
%%EndComments
/$F2psDict 200 dict def
$F2psDict begin
$F2psDict /mtrx matrix put
/col-1 {0 setgray} bind def
/col0 {0.000 0.000 0.000 srgb} bind def
/col1 {0.000 0.000 1.000 srgb} bind def
/col2 {0.000 1.000 0.000 srgb} bind def
/col3 {0.000 1.000 1.000 srgb} bind def
/col4 {1.000 0.000 0.000 srgb} bind def
/col5 {1.000 0.000 1.000 srgb} bind def
/col6 {1.000 1.000 0.000 srgb} bind def
/col7 {1.000 1.000 1.000 srgb} bind def
/col8 {0.000 0.000 0.560 srgb} bind def
/col9 {0.000 0.000 0.690 srgb} bind def
/col10 {0.000 0.000 0.820 srgb} bind def
/col11 {0.530 0.810 1.000 srgb} bind def
/col12 {0.000 0.560 0.000 srgb} bind def
/col13 {0.000 0.690 0.000 srgb} bind def
/col14 {0.000 0.820 0.000 srgb} bind def
/col15 {0.000 0.560 0.560 srgb} bind def
/col16 {0.000 0.690 0.690 srgb} bind def
/col17 {0.000 0.820 0.820 srgb} bind def
/col18 {0.560 0.000 0.000 srgb} bind def
/col19 {0.690 0.000 0.000 srgb} bind def
/col20 {0.820 0.000 0.000 srgb} bind def
/col21 {0.560 0.000 0.560 srgb} bind def
/col22 {0.690 0.000 0.690 srgb} bind def
/col23 {0.820 0.000 0.820 srgb} bind def
/col24 {0.500 0.190 0.000 srgb} bind def
/col25 {0.630 0.250 0.000 srgb} bind def
/col26 {0.750 0.380 0.000 srgb} bind def
/col27 {1.000 0.500 0.500 srgb} bind def
/col28 {1.000 0.630 0.630 srgb} bind def
/col29 {1.000 0.750 0.750 srgb} bind def
/col30 {1.000 0.880 0.880 srgb} bind def
/col31 {1.000 0.840 0.000 srgb} bind def

end
save
-30.0 267.0 translate
1 -1 scale

/cp {closepath} bind def
/ef {eofill} bind def
/gr {grestore} bind def
/gs {gsave} bind def
/sa {save} bind def
/rs {restore} bind def
/l {lineto} bind def
/m {moveto} bind def
/rm {rmoveto} bind def
/n {newpath} bind def
/s {stroke} bind def
/sh {show} bind def
/slc {setlinecap} bind def
/slj {setlinejoin} bind def
/slw {setlinewidth} bind def
/srgb {setrgbcolor} bind def
/rot {rotate} bind def
/sc {scale} bind def
/sd {setdash} bind def
/ff {findfont} bind def
/sf {setfont} bind def
/scf {scalefont} bind def
/sw {stringwidth} bind def
/tr {translate} bind def
/tnt {dup dup currentrgbcolor
  4 -2 roll dup 1 exch sub 3 -1 roll mul add
  4 -2 roll dup 1 exch sub 3 -1 roll mul add
  4 -2 roll dup 1 exch sub 3 -1 roll mul add srgb}
  bind def
/shd {dup dup currentrgbcolor 4 -2 roll mul 4 -2 roll mul
  4 -2 roll mul srgb} bind def
/$F2psBegin {$F2psDict begin /$F2psEnteredState save def} def
/$F2psEnd {$F2psEnteredState restore end} def
%%EndProlog

$F2psBegin
10 setmiterlimit
n -1000 5437 m -1000 -1000 l 4987 -1000 l 4987 5437 l cp clip
 0.06000 0.06000 sc
% Polyline
7.500 slw
n 975 675 m 975 900 l gs col0 s gr 
% Polyline
n 525 675 m 1275 675 l 1275 900 l 525 900 l cp gs col0 s gr 
% Polyline
n 975 900 m 975 1125 l gs col0 s gr 
% Polyline
n 525 900 m 1275 900 l 1275 1125 l 525 1125 l cp gs col0 s gr 
% Polyline
n 975 1125 m 975 1350 l gs col0 s gr 
% Polyline
n 525 1125 m 1275 1125 l 1275 1350 l 525 1350 l cp gs col0 s gr 
% Polyline
n 975 1350 m 975 1575 l gs col0 s gr 
% Polyline
n 525 1350 m 1275 1350 l 1275 1575 l 525 1575 l cp gs col0 s gr 
% Polyline
n 975 1575 m 975 1800 l gs col0 s gr 
% Polyline
n 525 1575 m 1275 1575 l 1275 1800 l 525 1800 l cp gs col0 s gr 
% Polyline
n 975 1800 m 975 2025 l gs col0 s gr 
% Polyline
n 525 1800 m 1275 1800 l 1275 2025 l 525 2025 l cp gs col0 s gr 
% Polyline
n 975 2025 m 975 2250 l gs col0 s gr 
% Polyline
n 525 2025 m 1275 2025 l 1275 2250 l 525 2250 l cp gs col0 s gr 
% Polyline
n 975 2250 m 975 2475 l gs col0 s gr 
% Polyline
n 525 2250 m 1275 2250 l 1275 2475 l 525 2475 l cp gs col0 s gr 
% Polyline
n 975 2475 m 975 2700 l gs col0 s gr 
% Polyline
n 525 2475 m 1275 2475 l 1275 2700 l 525 2700 l cp gs col0 s gr 
% Polyline
n 975 2700 m 975 2925 l gs col0 s gr 
% Polyline
n 525 2700 m 1275 2700 l 1275 2925 l 525 2925 l cp gs col0 s gr 
% Polyline
n 975 2925 m 975 3150 l gs col0 s gr 
% Polyline
n 525 2925 m 1275 2925 l 1275 3150 l 525 3150 l cp gs col0 s gr 
% Polyline
n 975 3150 m 975 3375 l gs col0 s gr 
% Polyline
n 525 3150 m 1275 3150 l 1275 3375 l 525 3375 l cp gs col0 s gr 
% Polyline
n 975 3375 m 975 3600 l gs col0 s gr 
% Polyline
n 525 3375 m 1275 3375 l 1275 3600 l 525 3600 l cp gs col0 s gr 
% Polyline
n 975 3600 m 975 3825 l gs col0 s gr 
% Polyline
n 525 3600 m 1275 3600 l 1275 3825 l 525 3825 l cp gs col0 s gr 
% Polyline
n 975 3825 m 975 4050 l gs col0 s gr 
% Polyline
n 525 3825 m 1275 3825 l 1275 4050 l 525 4050 l cp gs col0 s gr 
% Polyline
n 975 4050 m 975 4275 l gs col0 s gr 
% Polyline
n 525 4050 m 1275 4050 l 1275 4275 l 525 4275 l cp gs col0 s gr 
/Times-Roman ff 150.00 scf sf
600 825 m
gs 1 -1 sc (1926) col0 sh gr
/Times-Roman ff 150.00 scf sf
600 1050 m
gs 1 -1 sc (1942) col0 sh gr
/Times-Roman ff 150.00 scf sf
600 1275 m
gs 1 -1 sc (1958) col0 sh gr
/Times-Roman ff 150.00 scf sf
600 1500 m
gs 1 -1 sc (1960) col0 sh gr
/Times-Roman ff 150.00 scf sf
600 1725 m
gs 1 -1 sc (1969) col0 sh gr
/Times-Roman ff 150.00 scf sf
600 1950 m
gs 1 -1 sc (1977) col0 sh gr
/Times-Roman ff 150.00 scf sf
600 2175 m
gs 1 -1 sc (1979) col0 sh gr
/Times-Roman ff 150.00 scf sf
600 2400 m
gs 1 -1 sc (1980) col0 sh gr
/Times-Roman ff 150.00 scf sf
600 2625 m
gs 1 -1 sc (1984) col0 sh gr
/Times-Roman ff 150.00 scf sf
600 2850 m
gs 1 -1 sc (1984) col0 sh gr
/Times-Roman ff 150.00 scf sf
600 3075 m
gs 1 -1 sc (1990) col0 sh gr
/Times-Roman ff 150.00 scf sf
600 3300 m
gs 1 -1 sc (1992) col0 sh gr
/Times-Roman ff 150.00 scf sf
600 3525 m
gs 1 -1 sc (1992) col0 sh gr
/Times-Roman ff 150.00 scf sf
600 3975 m
gs 1 -1 sc (1995) col0 sh gr
/Times-Roman ff 150.00 scf sf
600 3750 m
gs 1 -1 sc (1992) col0 sh gr
/Times-Roman ff 150.00 scf sf
600 4200 m
gs 1 -1 sc (1995) col0 sh gr
% Polyline
n 3300 3525 m 3300 3750 l gs col0 s gr 
% Polyline
n 3675 3525 m 3675 3750 l gs col0 s gr 
% Polyline
n 3300 1650 m 3300 1875 l gs col0 s gr 
% Polyline
n 3300 1425 m 3300 1650 l gs col0 s gr 
% Polyline
n 3675 1425 m 3675 1650 l gs col0 s gr 
% Polyline
n 3675 1650 m 3675 1875 l gs col0 s gr 
% Polyline
n 3300 1875 m 3300 2100 l gs col0 s gr 
% Polyline
n 3675 1875 m 3675 2100 l gs col0 s gr 
% Polyline
n 3300 1050 m 3300 1275 l gs col0 s gr 
% Polyline
n 3675 1050 m 3675 1275 l gs col0 s gr 
% Polyline
n 3300 825 m 3300 1050 l gs col0 s gr 
% Polyline
n 3675 825 m 3675 1050 l gs col0 s gr 
% Polyline
n 3300 600 m 3300 825 l gs col0 s gr 
% Polyline
n 3675 600 m 3675 825 l gs col0 s gr 
% Polyline
n 3300 375 m 3300 600 l gs col0 s gr 
% Polyline
n 3675 375 m 3675 600 l gs col0 s gr 
% Polyline
n 3300 2100 m 3300 2325 l gs col0 s gr 
% Polyline
n 3675 2100 m 3675 2325 l gs col0 s gr 
% Polyline
n 3300 2475 m 3300 2700 l gs col0 s gr 
% Polyline
n 3675 2475 m 3675 2700 l gs col0 s gr 
% Polyline
n 3300 2700 m 3300 2925 l gs col0 s gr 
% Polyline
n 3675 2700 m 3675 2925 l gs col0 s gr 
% Polyline
n 3300 2925 m 3300 3150 l gs col0 s gr 
% Polyline
n 3675 2925 m 3675 3150 l gs col0 s gr 
% Polyline
n 3300 3150 m 3300 3375 l gs col0 s gr 
% Polyline
n 3675 3150 m 3675 3375 l gs col0 s gr 
% Polyline
n 3300 3750 m 3300 3975 l gs col0 s gr 
% Polyline
n 3675 3750 m 3675 3975 l gs col0 s gr 
% Polyline
n 3300 3975 m 3300 4200 l gs col0 s gr 
% Polyline
n 3675 3975 m 3675 4200 l gs col0 s gr 
% Polyline
n 3300 4200 m 3300 4425 l gs col0 s gr 
% Polyline
n 3675 4200 m 3675 4425 l gs col0 s gr 
% Polyline
n 2325 1050 m 3975 1050 l 3975 1275 l 2325 1275 l cp gs col0 s gr 
% Polyline
n 2325 375 m 3975 375 l 3975 600 l 2325 600 l cp gs col0 s gr 
% Polyline
n 2325 600 m 3975 600 l 3975 825 l 2325 825 l cp gs col0 s gr 
% Polyline
n 2325 825 m 3975 825 l 3975 1050 l 2325 1050 l cp gs col0 s gr 
% Polyline
n 2325 1425 m 3975 1425 l 3975 1650 l 2325 1650 l cp gs col0 s gr 
% Polyline
n 2325 1650 m 3975 1650 l 3975 1875 l 2325 1875 l cp gs col0 s gr 
% Polyline
n 2325 1875 m 3975 1875 l 3975 2100 l 2325 2100 l cp gs col0 s gr 
% Polyline
n 2325 2100 m 3975 2100 l 3975 2325 l 2325 2325 l cp gs col0 s gr 
% Polyline
n 2325 2475 m 3975 2475 l 3975 2700 l 2325 2700 l cp gs col0 s gr 
% Polyline
n 2325 2700 m 3975 2700 l 3975 2925 l 2325 2925 l cp gs col0 s gr 
% Polyline
n 2325 2925 m 3975 2925 l 3975 3150 l 2325 3150 l cp gs col0 s gr 
% Polyline
n 2325 3150 m 3975 3150 l 3975 3375 l 2325 3375 l cp gs col0 s gr 
% Polyline
n 2325 3525 m 3975 3525 l 3975 3750 l 2325 3750 l cp gs col0 s gr 
% Polyline
n 2325 3750 m 3975 3750 l 3975 3975 l 2325 3975 l cp gs col0 s gr 
% Polyline
n 2325 3975 m 3975 3975 l 3975 4200 l 2325 4200 l cp gs col0 s gr 
% Polyline
n 2325 4200 m 3975 4200 l 3975 4425 l 2325 4425 l cp gs col0 s gr 
% Polyline
gs  clippath
2283 2509 m 2325 2625 l 2233 2542 l 2308 2654 l 2358 2621 l cp
clip
n 1125 825 m 2325 2625 l gs col0 s gr gr

% arrowhead
n 2283 2509 m 2325 2625 l 2233 2542 l 2258 2525 l 2283 2509 l  cp gs 0.00 setgray ef gr  col0 s
% Polyline
gs  clippath
2205 945 m 2325 975 l 2205 1005 l 2340 1005 l 2340 945 l cp
clip
n 1125 975 m 2325 975 l gs col0 s gr gr

% arrowhead
n 2205 945 m 2325 975 l 2205 1005 l 2205 975 l 2205 945 l  cp gs 0.00 setgray ef gr  col0 s
% Polyline
gs  clippath
2310 4227 m 2325 4350 l 2254 4249 l 2302 4375 l 2358 4353 l cp
clip
n 1125 1200 m 2325 4350 l gs col0 s gr gr

% arrowhead
n 2310 4227 m 2325 4350 l 2254 4249 l 2282 4238 l 2310 4227 l  cp gs 0.00 setgray ef gr  col0 s
% Polyline
gs  clippath
2268 2740 m 2325 2850 l 2223 2780 l 2313 2881 l 2357 2841 l cp
clip
n 1125 1500 m 2325 2850 l gs col0 s gr gr

% arrowhead
n 2268 2740 m 2325 2850 l 2223 2780 l 2245 2760 l 2268 2740 l  cp gs 0.00 setgray ef gr  col0 s
% Polyline
gs  clippath
2203 1221 m 2325 1200 l 2227 1276 l 2351 1221 l 2327 1167 l cp
clip
n 1125 1725 m 2325 1200 l gs col0 s gr gr

% arrowhead
n 2203 1221 m 2325 1200 l 2227 1276 l 2215 1248 l 2203 1221 l  cp gs 0.00 setgray ef gr  col0 s
% Polyline
gs  clippath
2223 595 m 2325 525 l 2268 635 l 2357 534 l 2313 494 l cp
clip
n 1125 1875 m 2325 525 l gs col0 s gr gr

% arrowhead
n 2223 595 m 2325 525 l 2268 635 l 2245 615 l 2223 595 l  cp gs 0.00 setgray ef gr  col0 s
% Polyline
gs  clippath
2205 2145 m 2325 2175 l 2205 2205 l 2340 2205 l 2340 2145 l cp
clip
n 1125 2175 m 2325 2175 l gs col0 s gr gr

% arrowhead
n 2205 2145 m 2325 2175 l 2205 2205 l 2205 2175 l 2205 2145 l  cp gs 0.00 setgray ef gr  col0 s
% Polyline
gs  clippath
2251 3201 m 2325 3300 l 2213 3248 l 2318 3333 l 2356 3286 l cp
clip
n 1125 2325 m 2325 3300 l gs col0 s gr gr

% arrowhead
n 2251 3201 m 2325 3300 l 2213 3248 l 2232 3224 l 2251 3201 l  cp gs 0.00 setgray ef gr  col0 s
% Polyline
gs  clippath
2235 760 m 2325 675 l 2286 792 l 2358 679 l 2308 646 l cp
clip
n 1125 2550 m 2325 675 l gs col0 s gr gr

% arrowhead
n 2235 760 m 2325 675 l 2286 792 l 2260 776 l 2235 760 l  cp gs 0.00 setgray ef gr  col0 s
% Polyline
gs  clippath
2223 1570 m 2325 1500 l 2268 1610 l 2357 1509 l 2313 1469 l cp
clip
n 1125 2850 m 2325 1500 l gs col0 s gr gr

% arrowhead
n 2223 1570 m 2325 1500 l 2268 1610 l 2245 1590 l 2223 1570 l  cp gs 0.00 setgray ef gr  col0 s
% Polyline
gs  clippath
2243 3807 m 2325 3900 l 2209 3857 l 2320 3933 l 2354 3884 l cp
clip
n 1125 3075 m 2325 3900 l gs col0 s gr gr

% arrowhead
n 2243 3807 m 2325 3900 l 2209 3857 l 2226 3832 l 2243 3807 l  cp gs 0.00 setgray ef gr  col0 s
% Polyline
gs  clippath
2224 1797 m 2325 1725 l 2270 1836 l 2358 1733 l 2312 1694 l cp
clip
n 1050 3225 m 2325 1725 l gs col0 s gr gr

% arrowhead
n 2224 1797 m 2325 1725 l 2270 1836 l 2247 1816 l 2224 1797 l  cp gs 0.00 setgray ef gr  col0 s
% Polyline
gs  clippath
2227 2025 m 2325 1950 l 2273 2062 l 2358 1957 l 2311 1920 l cp
clip
n 1125 3450 m 2325 1950 l gs col0 s gr gr

% arrowhead
n 2227 2025 m 2325 1950 l 2273 2062 l 2250 2044 l 2227 2025 l  cp gs 0.00 setgray ef gr  col0 s
% Polyline
gs  clippath
2204 3102 m 2325 3075 l 2231 3155 l 2352 3095 l 2325 3041 l cp
clip
n 1125 3675 m 2325 3075 l gs col0 s gr gr

% arrowhead
n 2204 3102 m 2325 3075 l 2231 3155 l 2218 3129 l 2204 3102 l  cp gs 0.00 setgray ef gr  col0 s
% Polyline
gs  clippath
2201 3600 m 2325 3600 l 2216 3658 l 2347 3625 l 2332 3567 l cp
clip
n 1125 3900 m 2325 3600 l gs col0 s gr gr

% arrowhead
n 2201 3600 m 2325 3600 l 2216 3658 l 2209 3629 l 2201 3600 l  cp gs 0.00 setgray ef gr  col0 s
% Polyline
gs  clippath
2205 4095 m 2325 4125 l 2205 4155 l 2340 4155 l 2340 4095 l cp
clip
n 1125 4125 m 2325 4125 l gs col0 s gr gr

% arrowhead
n 2205 4095 m 2325 4125 l 2205 4155 l 2205 4125 l 2205 4095 l  cp gs 0.00 setgray ef gr  col0 s
/Times-Roman ff 165.00 scf sf
3726 525 m
gs 1 -1 sc (...) col0 sh gr
/Times-Roman ff 150.00 scf sf
3825 3675 m
gs 1 -1 sc (...) col0 sh gr
/Times-Roman ff 150.00 scf sf
3225 1575 m
gs 1 -1 sc ( ) col0 sh gr
/Times-Roman ff 150.00 scf sf
3825 1575 m
gs 1 -1 sc (...) col0 sh gr
/Times-Roman ff 150.00 scf sf
3825 1800 m
gs 1 -1 sc (...) col0 sh gr
/Times-Roman ff 150.00 scf sf
3825 2025 m
gs 1 -1 sc (...) col0 sh gr
/Times-Roman ff 150.00 scf sf
3150 2325 m
gs 1 -1 sc ( ) col0 sh gr
/Times-Roman ff 150.00 scf sf
3825 1200 m
gs 1 -1 sc (...) col0 sh gr
/Times-Roman ff 150.00 scf sf
3825 975 m
gs 1 -1 sc (...) col0 sh gr
/Times-Roman ff 150.00 scf sf
3825 750 m
gs 1 -1 sc (...) col0 sh gr
/Times-Roman ff 150.00 scf sf
3825 525 m
gs 1 -1 sc (...) col0 sh gr
/Times-Roman ff 150.00 scf sf
3825 2250 m
gs 1 -1 sc (...) col0 sh gr
/Times-Roman ff 150.00 scf sf
3825 2625 m
gs 1 -1 sc (...) col0 sh gr
/Times-Roman ff 150.00 scf sf
3825 2850 m
gs 1 -1 sc (...) col0 sh gr
/Times-Roman ff 150.00 scf sf
3825 3075 m
gs 1 -1 sc (...) col0 sh gr
/Times-Roman ff 150.00 scf sf
3825 3300 m
gs 1 -1 sc (...) col0 sh gr
/Times-Roman ff 150.00 scf sf
3825 3900 m
gs 1 -1 sc (...) col0 sh gr
/Times-Roman ff 150.00 scf sf
3825 4125 m
gs 1 -1 sc (...) col0 sh gr
/Times-Roman ff 150.00 scf sf
3825 4350 m
gs 1 -1 sc (...) col0 sh gr
/Times-Roman ff 150.00 scf sf
2475 525 m
gs 1 -1 sc (Annie Hall     1977) col0 sh gr
/Times-Roman ff 150.00 scf sf
2475 750 m
gs 1 -1 sc (Brazil             1984) col0 sh gr
/Times-Roman ff 150.00 scf sf
2475 975 m
gs 1 -1 sc (Casablanca     1942) col0 sh gr
/Times-Roman ff 150.00 scf sf
2475 1200 m
gs 1 -1 sc (Easy Rider      1969) col0 sh gr
/Times-Roman ff 150.00 scf sf
2475 1575 m
gs 1 -1 sc (Greystoke       1984) col0 sh gr
/Times-Roman ff 150.00 scf sf
2475 1800 m
gs 1 -1 sc (Jurassic Park  1992) col0 sh gr
/Times-Roman ff 150.00 scf sf
2475 2025 m
gs 1 -1 sc (Impitoyable    1992) col0 sh gr
/Times-Roman ff 150.00 scf sf
2475 2250 m
gs 1 -1 sc (Manhattan     1979) col0 sh gr
/Times-Roman ff 150.00 scf sf
2400 2625 m
gs 1 -1 sc (Metropolis        1926) col0 sh gr
/Times-Roman ff 150.00 scf sf
2400 2850 m
gs 1 -1 sc (Psychose           1960) col0 sh gr
/Times-Roman ff 150.00 scf sf
2400 3075 m
gs 1 -1 sc (Reservoir Dogs 1992) col0 sh gr
/Times-Roman ff 150.00 scf sf
2400 3300 m
gs 1 -1 sc (Shining             1980) col0 sh gr
/Times-Roman ff 150.00 scf sf
2475 3675 m
gs 1 -1 sc (Smoke            1995) col0 sh gr
/Times-Roman ff 150.00 scf sf
2475 3900 m
gs 1 -1 sc (Twin Peaks    1990) col0 sh gr
/Times-Roman ff 150.00 scf sf
2475 4125 m
gs 1 -1 sc (Undergroun   1995) col0 sh gr
/Times-Roman ff 150.00 scf sf
2475 4350 m
gs 1 -1 sc (Vertigo           1958) col0 sh gr
$F2psEnd
rs
