#FIG 3.2
Portrait
Center
Inches
Letter  
100.00
Single
-2
1200 2
6 525 1575 5850 2625
2 2 0 1 -1 7 0 0 -1 0.000 0 0 0 0 0 5
	 525 1575 1500 1575 1500 2325 525 2325 525 1575
2 2 0 1 -1 7 0 0 -1 0.000 0 0 0 0 0 5
	 1875 1575 2925 1575 2925 2325 1875 2325 1875 1575
2 2 0 1 -1 7 0 0 -1 0.000 0 0 0 0 0 5
	 3375 1575 4425 1575 4425 2325 3375 2325 3375 1575
2 2 0 1 -1 7 0 0 -1 0.000 0 0 0 0 0 5
	 4800 1575 5850 1575 5850 2325 4800 2325 4800 1575
4 0 -1 0 0 0 10 0.0000 4 105 150 600 2100 13\001
4 0 -1 0 0 0 10 0.0000 4 105 150 1950 2100 14\001
4 0 -1 0 0 0 10 0.0000 4 15 135 3450 2025 ...\001
4 0 -1 0 0 0 10 0.0000 4 15 135 4875 2025 ...\001
4 0 -1 0 0 0 10 0.0000 4 15 135 900 2100 ...\001
4 0 -1 0 0 0 10 0.0000 4 15 135 2250 2100 ...\001
4 0 0 100 0 0 10 0.0000 6 135 390 825 2550 Page 1\001
4 0 0 100 0 0 10 0.0000 6 135 390 2175 2550 Page 2\001
4 0 0 100 0 0 10 0.0000 6 135 390 3600 2550 Page 3\001
4 0 0 100 0 0 10 0.0000 6 135 390 5100 2550 Page 4\001
4 0 0 100 0 0 10 0.0000 6 105 75 600 1800 1\001
4 0 0 100 0 0 10 0.0000 6 105 75 900 1800 5\001
4 0 0 100 0 0 10 0.0000 6 105 75 1200 1800 9\001
4 0 0 100 0 0 10 0.0000 6 105 75 2025 1800 2\001
4 0 0 100 0 0 10 0.0000 6 105 75 2325 1800 6\001
4 0 0 100 0 0 10 0.0000 6 105 150 2625 1800 10\001
4 0 0 100 0 0 10 0.0000 6 105 75 3525 1800 3\001
4 0 0 100 0 0 10 0.0000 6 105 75 3825 1800 7\001
4 0 0 100 0 0 10 0.0000 6 105 150 4125 1800 11\001
4 0 0 100 0 0 10 0.0000 6 105 75 4950 1800 4\001
4 0 0 100 0 0 10 0.0000 6 105 75 5250 1800 8\001
4 0 0 100 0 0 10 0.0000 6 105 150 5550 1800 12\001
-6
2 3 0 1 0 7 50 0 -1 0.000 0 0 -1 0 0 4
	 525 1125 3075 600 5850 1125 525 1125
2 1 0 1 0 7 50 0 -1 0.000 0 0 -1 1 0 4
	1 1 1.00 60.00 120.00
	 2400 1050 2400 1275 975 1275 975 1575
2 1 0 1 0 7 50 0 -1 0.000 0 0 -1 1 0 2
	1 1 1.00 60.00 120.00
	 2700 1050 2700 1575
2 1 0 1 0 7 50 0 -1 0.000 0 0 -1 1 0 4
	1 1 1.00 60.00 120.00
	 2925 1050 2925 1275 3900 1275 3900 1575
2 1 0 1 0 7 50 0 -1 0.000 0 0 -1 1 0 4
	1 1 1.00 60.00 120.00
	 3150 1050 3150 1200 5250 1200 5250 1575
2 1 0 1 0 7 50 0 -1 0.000 0 0 -1 1 0 4
	1 1 1.00 60.00 120.00
	 3375 1050 3375 1350 1350 1350 1350 1575
4 0 0 50 0 0 10 0.0000 4 105 360 2925 825 Index\001
4 0 0 50 0 0 10 0.0000 4 105 75 2400 1050 9\001
4 0 0 50 0 0 10 0.0000 4 105 150 2625 1050 10\001
4 0 0 50 0 0 10 0.0000 4 105 150 2850 1050 11\001
4 0 0 50 0 0 10 0.0000 4 105 150 3075 1050 12\001
4 0 0 50 0 0 10 0.0000 4 105 150 3300 1050 13\001
