#FIG 3.2
Landscape
Center
Inches
Letter  
100.00
Single
-2
1200 2
6 750 2025 1650 2775
2 2 0 1 0 7 100 0 -1 0.000 0 0 -1 0 0 5
	 750 2025 1650 2025 1650 2775 750 2775 750 2025
2 1 0 1 0 7 100 0 -1 0.000 0 0 -1 0 0 2
	 750 2250 1650 2250
4 0 0 100 0 -1 10 0.0000 4 105 600 825 2175 Chercheur\001
4 0 0 100 0 -1 10 0.0000 4 105 300 825 2475 Nom\001
4 0 0 100 0 -1 10 0.0000 4 105 465 825 2700 Prenom\001
-6
1 2 0 1 0 7 100 0 -1 0.000 1 0.0000 1725 1387 375 187 1350 1200 2100 1575
1 2 0 1 0 7 100 0 -1 0.000 1 0.0000 637 1387 487 187 150 1200 1125 1575
1 2 0 1 0 7 100 0 -1 0.000 1 0.0000 2550 2512 375 187 2175 2325 2925 2700
2 1 0 1 0 7 100 0 -1 0.000 0 0 -1 0 0 2
	 600 1200 975 900
2 1 0 1 0 7 100 0 -1 0.000 0 0 -1 0 0 2
	 600 1575 975 2025
2 1 0 1 0 7 100 0 -1 0.000 0 0 -1 0 0 2
	 1725 1575 1350 2025
2 1 0 1 0 7 100 0 -1 0.000 0 0 -1 0 0 2
	 1650 2550 2175 2550
2 1 0 1 0 7 100 0 -1 0.000 0 0 -1 0 0 2
	 2925 2475 3225 2100
2 1 0 1 0 7 100 0 -1 0.000 0 0 -1 0 0 2
	 2850 1500 3750 1500
2 2 0 1 0 7 100 0 -1 0.000 0 0 -1 0 0 5
	 2850 1200 3750 1200 3750 2100 2850 2100 2850 1200
2 2 0 1 0 7 100 0 -1 0.000 0 0 -1 0 0 5
	 750 75 1650 75 1650 900 750 900 750 75
2 1 0 1 0 7 100 0 -1 0.000 0 0 -1 0 0 2
	 750 300 1650 300
2 1 0 1 0 7 100 0 -1 0.000 0 0 -1 0 0 2
	 1282 891 1657 1191
4 0 0 100 0 -1 10 0.0000 4 135 375 1500 1425 Dirige\001
4 0 0 100 0 -1 10 0.0000 4 105 285 2400 2550 Ecrit\001
4 0 0 100 0 -1 10 0.0000 4 120 195 1650 1950 0,n\001
4 0 0 100 0 -1 10 0.0000 4 120 195 525 1950 1,1\001
4 0 0 100 0 -1 10 0.0000 4 120 195 1725 2700 0,n\001
4 0 0 100 0 -1 10 0.0000 4 105 615 300 1425 Rattache a\001
4 0 0 100 0 -1 10 0.0000 4 105 405 3075 1425 Article\001
4 0 0 100 0 -1 10 0.0000 4 105 375 3075 2025 Annee\001
4 0 0 100 0 -1 10 0.0000 4 105 285 3075 1875 Titre\001
4 0 0 100 0 -1 10 0.0000 4 105 315 3075 1725 Code\001
4 0 0 100 0 -1 10 0.0000 4 120 195 3225 2250 1,n\001
4 0 0 100 0 -1 10 0.0000 4 135 420 975 225 Equipe\001
4 0 0 100 0 -1 10 0.0000 4 105 150 900 525 ID\001
4 0 0 100 0 -1 10 0.0000 4 105 435 900 750 Intitule\001
4 0 0 100 0 -1 10 0.0000 4 120 195 525 1050 0,n\001
4 0 0 100 0 -1 10 0.0000 4 120 195 1650 1050 1,n\001
