%!PS-Adobe-2.0 EPSF-2.0
%%Title: PE3.fig
%%Creator: fig2dev Version 3.2 Patchlevel 1
%%CreationDate: Fri Jan 19 12:44:54 2001
%%For: amann@magellan (Bernd Amann)
%%Orientation: Portrait
%%BoundingBox: 0 0 372 210
%%Pages: 0
%%BeginSetup
%%EndSetup
%%Magnification: 1.0000
%%EndComments
/$F2psDict 200 dict def
$F2psDict begin
$F2psDict /mtrx matrix put
/col-1 {0 setgray} bind def
/col0 {0.000 0.000 0.000 srgb} bind def
/col1 {0.000 0.000 1.000 srgb} bind def
/col2 {0.000 1.000 0.000 srgb} bind def
/col3 {0.000 1.000 1.000 srgb} bind def
/col4 {1.000 0.000 0.000 srgb} bind def
/col5 {1.000 0.000 1.000 srgb} bind def
/col6 {1.000 1.000 0.000 srgb} bind def
/col7 {1.000 1.000 1.000 srgb} bind def
/col8 {0.000 0.000 0.560 srgb} bind def
/col9 {0.000 0.000 0.690 srgb} bind def
/col10 {0.000 0.000 0.820 srgb} bind def
/col11 {0.530 0.810 1.000 srgb} bind def
/col12 {0.000 0.560 0.000 srgb} bind def
/col13 {0.000 0.690 0.000 srgb} bind def
/col14 {0.000 0.820 0.000 srgb} bind def
/col15 {0.000 0.560 0.560 srgb} bind def
/col16 {0.000 0.690 0.690 srgb} bind def
/col17 {0.000 0.820 0.820 srgb} bind def
/col18 {0.560 0.000 0.000 srgb} bind def
/col19 {0.690 0.000 0.000 srgb} bind def
/col20 {0.820 0.000 0.000 srgb} bind def
/col21 {0.560 0.000 0.560 srgb} bind def
/col22 {0.690 0.000 0.690 srgb} bind def
/col23 {0.820 0.000 0.820 srgb} bind def
/col24 {0.500 0.190 0.000 srgb} bind def
/col25 {0.630 0.250 0.000 srgb} bind def
/col26 {0.750 0.380 0.000 srgb} bind def
/col27 {1.000 0.500 0.500 srgb} bind def
/col28 {1.000 0.630 0.630 srgb} bind def
/col29 {1.000 0.750 0.750 srgb} bind def
/col30 {1.000 0.880 0.880 srgb} bind def
/col31 {1.000 0.840 0.000 srgb} bind def

end
save
-12.0 213.0 translate
1 -1 scale

/cp {closepath} bind def
/ef {eofill} bind def
/gr {grestore} bind def
/gs {gsave} bind def
/sa {save} bind def
/rs {restore} bind def
/l {lineto} bind def
/m {moveto} bind def
/rm {rmoveto} bind def
/n {newpath} bind def
/s {stroke} bind def
/sh {show} bind def
/slc {setlinecap} bind def
/slj {setlinejoin} bind def
/slw {setlinewidth} bind def
/srgb {setrgbcolor} bind def
/rot {rotate} bind def
/sc {scale} bind def
/sd {setdash} bind def
/ff {findfont} bind def
/sf {setfont} bind def
/scf {scalefont} bind def
/sw {stringwidth} bind def
/tr {translate} bind def
/tnt {dup dup currentrgbcolor
  4 -2 roll dup 1 exch sub 3 -1 roll mul add
  4 -2 roll dup 1 exch sub 3 -1 roll mul add
  4 -2 roll dup 1 exch sub 3 -1 roll mul add srgb}
  bind def
/shd {dup dup currentrgbcolor 4 -2 roll mul 4 -2 roll mul
  4 -2 roll mul srgb} bind def
 /DrawEllipse {
	/endangle exch def
	/startangle exch def
	/yrad exch def
	/xrad exch def
	/y exch def
	/x exch def
	/savematrix mtrx currentmatrix def
	x y tr xrad yrad sc 0 0 1 startangle endangle arc
	closepath
	savematrix setmatrix
	} def

/$F2psBegin {$F2psDict begin /$F2psEnteredState save def} def
/$F2psEnd {$F2psEnteredState restore end} def
%%EndProlog

$F2psBegin
10 setmiterlimit
n -1000 1236 m -1000 -1000 l 1426 -1000 l 1426 1236 l cp clip
 0.90000 0.90000 sc
% Polyline
0.500 slw
n 224 184 m 224 169 l 169 169 l 169 184 l cp gs col-1 s gr 
/Times-Bold ff 10.00 scf sf
189 179 m
gs 1 -1 sc (Salle) col-1 sh gr
/Times-Roman ff 10.00 scf sf
149 164 m
gs 1 -1 sc (Adresse) col-1 sh gr
% Polyline
n 89 234 m 89 219 l 34 219 l 34 234 l cp gs col-1 s gr 
/Times-Bold ff 10.00 scf sf
49 229 m
gs 1 -1 sc (Seance) col-1 sh gr
/Times-Roman ff 10.00 scf sf
14 214 m
gs 1 -1 sc (Sequentiel) col-1 sh gr
% Ellipse
n 134 114 25 10 0 360 DrawEllipse gs col-1 s gr

% Ellipse
n 319 114 25 10 0 360 DrawEllipse gs col-1 s gr

% Ellipse
n 219 54 25 10 0 360 DrawEllipse gs col-1 s gr

% Ellipse
n 64 154 25 10 0 360 DrawEllipse gs col-1 s gr

% Ellipse
n 219 14 25 10 0 360 DrawEllipse gs col-1 s gr

% Polyline
n 349 219 m 349 184 l gs col-1 s gr 
% Polyline
n 344 169 m 329 124 l gs col-1 s gr 
% Polyline
n 309 104 m 244 54 l gs col-1 s gr 
% Polyline
n 199 219 m 199 184 l gs col-1 s gr 
% Polyline
n 199 169 m 154 119 l gs col-1 s gr 
% Polyline
n 144 104 m 194 59 l gs col-1 s gr 
% Polyline
n 274 234 m 274 219 l 159 219 l 159 234 l cp gs col-1 s gr 
% Polyline
n 374 184 m 374 169 l 319 169 l 319 184 l cp gs col-1 s gr 
% Polyline
n 424 234 m 424 219 l 299 219 l 299 234 l cp gs col-1 s gr 
% Polyline
n 64 164 m 64 219 l gs col-1 s gr 
% Polyline
n 69 144 m 109 114 l gs col-1 s gr 
% Polyline
n 219 24 m 219 44 l gs col-1 s gr 
/Times-Roman ff 10.00 scf sf
119 119 m
gs 1 -1 sc (Jointure) col-1 sh gr
/Times-Roman ff 10.00 scf sf
299 119 m
gs 1 -1 sc (Selection) col-1 sh gr
/Times-Roman ff 10.00 scf sf
204 59 m
gs 1 -1 sc (Jointure) col-1 sh gr
/Times-Bold ff 10.00 scf sf
164 229 m
gs 1 -1 sc (Index Salle\(ID_salle\)) col-1 sh gr
/Times-Roman ff 10.00 scf sf
149 214 m
gs 1 -1 sc (Id_salle) col-1 sh gr
/Times-Roman ff 10.00 scf sf
259 109 m
gs 1 -1 sc ('Le Rex') col-1 sh gr
/Times-Roman ff 10.00 scf sf
299 164 m
gs 1 -1 sc (Adresse) col-1 sh gr
/Times-Bold ff 10.00 scf sf
304 229 m
gs 1 -1 sc (Index Cinema\(ID_cinema\)) col-1 sh gr
/Times-Roman ff 10.00 scf sf
294 214 m
gs 1 -1 sc (Id_cinema) col-1 sh gr
/Times-Bold ff 10.00 scf sf
329 179 m
gs 1 -1 sc (Cinema) col-1 sh gr
/Times-Roman ff 10.00 scf sf
44 159 m
gs 1 -1 sc (Selection) col-1 sh gr
/Times-Roman ff 10.00 scf sf
19 139 m
gs 1 -1 sc (Horaire=20) col-1 sh gr
/Times-Roman ff 10.00 scf sf
199 19 m
gs 1 -1 sc (Projection) col-1 sh gr
$F2psEnd
rs
