#FIG 3.2
Landscape
Center
Inches
Letter  
100.00
Single
-2
1200 2
2 1 0 1 0 7 0 0 -1 0.000 0 0 -1 0 0 4
	 2025 750 2025 525 2550 525 2550 750
2 1 0 1 0 7 0 0 -1 0.000 0 0 -1 0 0 3
	 2025 525 1950 525 2025 525
2 1 0 1 0 7 0 0 -1 0.000 0 0 -1 0 0 3
	 2550 525 2775 525 2700 525
2 1 0 1 0 7 0 0 -1 0.000 0 0 -1 0 0 2
	 1500 4575 3300 3750
2 1 0 1 0 7 0 0 -1 0.000 0 0 -1 0 0 2
	 1500 3750 1500 4575
2 1 0 1 0 7 0 0 -1 0.000 0 0 -1 0 0 2
	 3374 4578 1574 3753
2 1 0 1 0 7 0 0 -1 0.000 0 0 -1 0 0 2
	 3300 3750 3300 4575
2 1 0 1 0 7 0 0 -1 0.000 0 0 -1 0 0 2
	 2325 1050 2325 1725
2 1 0 1 0 7 0 0 -1 0.000 0 0 -1 0 0 2
	 2400 2775 2400 3750
2 1 0 1 0 7 0 0 -1 0.000 0 0 -1 0 0 2
	 1725 4725 1350 5175
2 1 0 1 0 7 0 0 -1 0.000 0 0 -1 0 0 2
	 3450 4725 3825 5175
3 2 0 1 0 7 0 0 -1 0.000 0 0 0 8
	 2146 1869 1921 1869 1696 2019 1696 2169 1846 2244 1996 2169
	 1921 2019 1771 1944
	 0.000 -1.000 -1.000 -1.000 -1.000 -1.000 -1.000 0.000
4 0 0 0 0 0 12 0.0000 4 135 810 750 5400 Communes\001
4 0 0 0 0 0 12 0.0000 4 180 975 3675 5400 Departements\001
4 0 0 0 0 0 12 0.0000 4 180 1380 2700 900 .Departements.nom\001
4 0 0 0 0 0 12 0.0000 4 180 810 1950 4650 #dept=num\001
4 0 0 0 0 0 12 0.0000 4 165 1305 2100 2475 Nbhab>1,000,000\001
