%!PS-Adobe-2.0 EPSF-2.0
%%Title: rtreepq.eps
%%Creator: fig2dev Version 3.2 Patchlevel 1
%%CreationDate: Mon Jul 31 10:48:25 2000
%%For: rigaux@cartier ()
%%Orientation: Portrait
%%BoundingBox: 0 0 329 125
%%Pages: 0
%%BeginSetup
%%EndSetup
%%Magnification: 1.0000
%%EndComments
/$F2psDict 200 dict def
$F2psDict begin
$F2psDict /mtrx matrix put
/col-1 {0 setgray} bind def
/col0 {0.000 0.000 0.000 srgb} bind def
/col1 {0.000 0.000 1.000 srgb} bind def
/col2 {0.000 1.000 0.000 srgb} bind def
/col3 {0.000 1.000 1.000 srgb} bind def
/col4 {1.000 0.000 0.000 srgb} bind def
/col5 {1.000 0.000 1.000 srgb} bind def
/col6 {1.000 1.000 0.000 srgb} bind def
/col7 {1.000 1.000 1.000 srgb} bind def
/col8 {0.000 0.000 0.560 srgb} bind def
/col9 {0.000 0.000 0.690 srgb} bind def
/col10 {0.000 0.000 0.820 srgb} bind def
/col11 {0.530 0.810 1.000 srgb} bind def
/col12 {0.000 0.560 0.000 srgb} bind def
/col13 {0.000 0.690 0.000 srgb} bind def
/col14 {0.000 0.820 0.000 srgb} bind def
/col15 {0.000 0.560 0.560 srgb} bind def
/col16 {0.000 0.690 0.690 srgb} bind def
/col17 {0.000 0.820 0.820 srgb} bind def
/col18 {0.560 0.000 0.000 srgb} bind def
/col19 {0.690 0.000 0.000 srgb} bind def
/col20 {0.820 0.000 0.000 srgb} bind def
/col21 {0.560 0.000 0.560 srgb} bind def
/col22 {0.690 0.000 0.690 srgb} bind def
/col23 {0.820 0.000 0.820 srgb} bind def
/col24 {0.500 0.190 0.000 srgb} bind def
/col25 {0.630 0.250 0.000 srgb} bind def
/col26 {0.750 0.380 0.000 srgb} bind def
/col27 {1.000 0.500 0.500 srgb} bind def
/col28 {1.000 0.630 0.630 srgb} bind def
/col29 {1.000 0.750 0.750 srgb} bind def
/col30 {1.000 0.880 0.880 srgb} bind def
/col31 {1.000 0.840 0.000 srgb} bind def

end
save
-39.0 161.0 translate
1 -1 scale

/cp {closepath} bind def
/ef {eofill} bind def
/gr {grestore} bind def
/gs {gsave} bind def
/sa {save} bind def
/rs {restore} bind def
/l {lineto} bind def
/m {moveto} bind def
/rm {rmoveto} bind def
/n {newpath} bind def
/s {stroke} bind def
/sh {show} bind def
/slc {setlinecap} bind def
/slj {setlinejoin} bind def
/slw {setlinewidth} bind def
/srgb {setrgbcolor} bind def
/rot {rotate} bind def
/sc {scale} bind def
/sd {setdash} bind def
/ff {findfont} bind def
/sf {setfont} bind def
/scf {scalefont} bind def
/sw {stringwidth} bind def
/tr {translate} bind def
/tnt {dup dup currentrgbcolor
  4 -2 roll dup 1 exch sub 3 -1 roll mul add
  4 -2 roll dup 1 exch sub 3 -1 roll mul add
  4 -2 roll dup 1 exch sub 3 -1 roll mul add srgb}
  bind def
/shd {dup dup currentrgbcolor 4 -2 roll mul 4 -2 roll mul
  4 -2 roll mul srgb} bind def
 /DrawEllipse {
	/endangle exch def
	/startangle exch def
	/yrad exch def
	/xrad exch def
	/y exch def
	/x exch def
	/savematrix mtrx currentmatrix def
	x y tr xrad yrad sc 0 0 1 startangle endangle arc
	closepath
	savematrix setmatrix
	} def

/$F2psBegin {$F2psDict begin /$F2psEnteredState save def} def
/$F2psEnd {$F2psEnteredState restore end} def
%%EndProlog

$F2psBegin
10 setmiterlimit
n -1000 3677 m -1000 -1000 l 7123 -1000 l 7123 3677 l cp clip
 0.06000 0.06000 sc
% Polyline
7.500 slw
n 2568 1638 m 2568 1362 l 2383 1362 l 2383 1638 l cp gs col7 0.50 shd ef gr gs col0 s gr 
% Polyline
n 2014 1547 m 2014 807 l 1783 807 l 1783 1547 l cp gs col7 0.50 shd ef gr gs col0 s gr 
/Times-Roman ff 150.00 scf sf
4784 2198 m
gs 1 -1 sc ([8,9,14]) col0 sh gr
/Times-Roman ff 150.00 scf sf
5477 2198 m
gs 1 -1 sc ([11,12,13]) col0 sh gr
% Polyline
n 2475 1408 m 2475 1223 l 1876 1223 l 1876 1408 l cp gs col7 0.50 shd ef gr gs col0 s gr 
% Polyline
n 1691 992 m 1691 761 l 1460 761 l 1460 992 l cp gs col7 0.50 shd ef gr gs col0 s gr 
% Polyline
n 2383 900 m 2383 669 l 2060 669 l 2060 900 l cp gs col7 0.50 shd ef gr gs col0 s gr 
% Polyline
n 2245 1823 m 2245 1638 l 1876 1638 l 1876 1823 l cp gs col7 0.50 shd ef gr gs col0 s gr 
% Ellipse
n 1957 1297 31 31 0 360 DrawEllipse gs col7 0.00 shd ef gr gs col0 s gr

% Ellipse
n 3356 1925 64 64 0 360 DrawEllipse gs col-1 s gr

% Ellipse
n 4096 1925 64 64 0 360 DrawEllipse gs col-1 s gr

15.000 slw
% Ellipse
n 4880 1925 64 64 0 360 DrawEllipse gs col0 s gr

% Ellipse
n 5757 1925 64 64 0 360 DrawEllipse gs col0 s gr

% Ellipse
n 4492 1399 78 78 0 360 DrawEllipse gs col0 s gr

% Polyline
7.500 slw
 [15] 0 sd
n 2199 2609 m 2199 1501 l 721 1501 l 721 2609 l cp gs col-1 s gr  [] 0 sd
% Polyline
 [15] 0 sd
n 1367 1454 m 1367 669 l 766 669 l 766 1454 l cp gs col-1 s gr  [] 0 sd
% Polyline
15.000 slw
n 2660 2655 m 2660 623 l 675 623 l 675 2655 l cp gs col-1 s gr 
% Polyline
7.500 slw
 [15] 0 sd
n 2245 1823 m 1460 1823 l 1460 761 l 2245 761 l cp gs col-1 s gr  [] 0 sd
% Polyline
 [15] 0 sd
n 1876 1644 m 2568 1644 l 2568 675 l 1876 675 l cp gs col-1 s gr  [] 0 sd
% Polyline
gs  clippath
1863 1250 m 1968 1316 l 1845 1307 l 1973 1349 l 1992 1292 l cp
clip
n 1598 1195 m 1968 1316 l gs col0 s gr gr

% arrowhead
n 1863 1250 m 1968 1316 l 1845 1307 l 1854 1279 l 1863 1250 l  cp gs 0.00 setgray ef gr  col0 s
% Polyline
n 4425 1365 m 3352 1875 l gs col-1 s gr 
% Polyline
n 4448 1455 m 4110 1860 l gs col-1 s gr 
% Polyline
15.000 slw
n 4570 1380 m 5755 1855 l gs col0 s gr 
% Polyline
n 4550 1465 m 4875 1860 l gs col0 s gr 
/Times-Roman ff 120.00 scf sf
2107 854 m
gs 1 -1 sc (11) col-1 sh gr
/Times-Roman ff 120.00 scf sf
2429 1547 m
gs 1 -1 sc (13) col-1 sh gr
/Times-Roman ff 120.00 scf sf
1922 1777 m
gs 1 -1 sc (9) col-1 sh gr
/Times-Roman ff 120.00 scf sf
2060 1362 m
gs 1 -1 sc (12) col-1 sh gr
/Times-Roman ff 120.00 scf sf
1506 900 m
gs 1 -1 sc (14) col-1 sh gr
/Times-Roman ff 120.00 scf sf
1922 1085 m
gs 1 -1 sc (8) col-1 sh gr
/Times-Italic ff 150.00 scf sf
1500 1200 m
gs 1 -1 sc (P) col-1 sh gr
/Times-Italic ff 150.00 scf sf
813 1731 m
gs 1 -1 sc (b) col-1 sh gr
/Times-Italic ff 150.00 scf sf
859 854 m
gs 1 -1 sc (a) col-1 sh gr
/Times-Italic ff 150.00 scf sf
2775 2625 m
gs 1 -1 sc (R) col-1 sh gr
/Times-Italic ff 150.00 scf sf
2400 1050 m
gs 1 -1 sc (d) col-1 sh gr
/Times-Italic ff 150.00 scf sf
4418 1186 m
gs 1 -1 sc (R) col-1 sh gr
/Times-Italic ff 150.00 scf sf
3864 1971 m
gs 1 -1 sc (b) col-1 sh gr
/Times-Italic ff 150.00 scf sf
3125 1971 m
gs 1 -1 sc (a) col-1 sh gr
/Times-Italic ff 150.00 scf sf
4649 1971 m
gs 1 -1 sc (c) col-1 sh gr
/Times-Italic ff 150.00 scf sf
5527 1971 m
gs 1 -1 sc (d) col-1 sh gr
/Times-Italic ff 150.00 scf sf
1515 1748 m
gs 1 -1 sc (c) col-1 sh gr
$F2psEnd
rs
