#FIG 3.2
Portrait
Center
Inches
A4      
100.00
Single
-2
1200 2
2 1 0 1 -1 7 0 0 -1 0.000 0 0 -1 0 0 2
	 226 451 1125 450
2 1 0 1 -1 7 0 0 -1 0.000 0 0 -1 0 0 2
	 1726 4051 2551 4051
2 4 0 1 -1 7 0 0 -1 0.000 0 0 7 0 0 5
	 1125 1125 1125 151 226 151 226 1125 1125 1125
2 1 0 1 0 7 50 0 -1 0.000 0 0 -1 0 0 2
	 1125 750 2700 750
2 1 0 1 0 7 50 0 -1 0.000 0 0 7 0 0 3
	 900 1125 900 1950 2700 1950
2 1 0 1 0 7 50 0 -1 0.000 0 0 -1 0 0 2
	 675 1125 675 2550
2 1 0 1 -1 7 0 0 -1 0.000 0 0 -1 0 0 2
	 225 2775 1125 2775
2 1 0 1 -1 7 0 0 -1 0.000 0 0 -1 0 0 2
	 2700 450 3600 450
2 4 0 1 -1 7 0 0 -1 0.000 0 0 7 0 0 5
	 3600 1200 3600 151 2701 151 2701 1200 3600 1200
2 1 0 1 -1 7 0 0 -1 0.000 0 0 -1 0 0 2
	 2700 1650 3600 1650
2 4 0 1 -1 7 0 0 -1 0.000 0 0 7 0 0 5
	 3600 2250 3600 1426 2700 1426 2700 2250 3600 2250
2 4 0 1 -1 7 0 0 -1 0.000 0 0 7 0 0 5
	 1125 3225 1125 2551 225 2551 225 3225 1125 3225
2 4 0 1 0 7 50 0 -1 0.000 0 0 7 0 0 5
	 2551 4500 2551 3826 1725 3826 1725 4500 2551 4500
2 1 0 1 0 7 50 0 -1 0.000 0 0 -1 0 0 3
	 675 3225 675 4200 1725 4200
2 1 0 1 0 7 50 0 -1 0.000 0 0 -1 0 0 2
	 3150 2475 3150 2700
2 1 0 1 0 7 50 0 -1 0.000 0 0 -1 0 0 2
	 2700 3000 1125 3000
2 1 0 1 0 7 50 0 -1 0.000 0 0 -1 0 0 1
	 1125 3000
2 1 0 1 -1 7 0 0 -1 0.000 0 0 -1 0 0 2
	 2700 2925 3600 2925
2 4 0 1 -1 7 0 0 -1 0.000 0 0 7 0 0 5
	 3600 3300 3600 2701 2700 2701 2700 3300 3600 3300
2 2 0 1 0 7 50 0 -1 0.000 0 0 7 0 0 5
	 2925 2250 3450 2250 3450 2475 2925 2475 2925 2250
4 0 0 50 0 0 10 0.0000 4 105 690 301 376 Journaliste\001
4 0 0 50 0 2 10 0.0000 4 120 135 300 675 id\001
4 0 0 50 0 0 10 0.0000 4 105 660 1275 675 interviewe\001
4 0 -1 0 0 0 10 0.0000 4 120 780 2776 376 Personnalit\351\001
4 0 0 50 0 2 10 0.0000 4 120 135 2775 675 id\001
4 0 -1 0 0 0 10 0.0000 4 105 465 2850 1575 Journal\001
4 0 -1 0 0 0 10 0.0000 4 105 465 375 2700 Article\001
4 0 0 50 0 0 10 0.0000 4 135 315 1876 3976 Sujet\001
4 0 0 50 0 2 10 0.0000 4 120 135 1875 4200 id\001
4 0 -1 0 0 0 10 0.0000 4 105 420 1875 4350 libelle\001
4 0 0 50 0 2 10 0.0000 4 75 300 2850 1875 nom\001
4 0 -1 0 0 0 10 0.0000 4 105 435 2850 2025 adresse\001
4 0 -1 0 0 0 10 0.0000 4 90 480 375 3075 contenu\001
4 0 0 50 0 0 10 0.0000 4 75 270 300 825 nom\001
4 0 0 50 0 0 10 0.0000 4 105 600 300 975 dateNaiss\001
4 0 -1 0 0 0 10 0.0000 4 75 270 2775 825 nom\001
4 0 -1 0 0 0 10 0.0000 4 150 465 2775 975 pr\351nom\001
4 0 -1 0 0 0 10 0.0000 4 105 435 2775 1125 nation.\001
4 0 0 50 0 0 10 0.0000 4 120 510 2850 2850 Num\351ro\001
4 0 0 50 0 2 10 0.0000 4 75 180 375 2925 no\001
4 0 0 50 0 0 10 0.0000 4 150 375 225 1575 r\351dige\001
4 0 0 50 0 0 10 0.0000 4 105 240 450 1275 1..1\001
4 0 0 50 0 2 10 0.0000 4 75 180 3075 2400 no\001
4 0 0 50 0 0 10 0.0000 4 105 255 2850 3075 date\001
4 0 0 50 0 0 10 0.0000 4 135 360 2850 3270 tirage\001
4 0 0 50 0 0 10 0.0000 4 150 945 900 2100 a travaill\351 pour\001
4 0 0 50 0 0 10 0.0000 4 105 240 1500 4125 1..1\001
4 0 0 50 0 0 10 0.0000 4 150 675 1500 2925 para\356t dans\001
4 0 0 50 0 0 10 0.0000 4 105 240 2475 3150 1..1\001
4 0 0 50 0 0 10 0.0000 4 105 240 2400 900 0..*\001
4 0 0 50 0 0 10 0.0000 4 105 240 1200 900 0..*\001
4 0 0 50 0 0 10 0.0000 4 105 240 975 1275 0..*\001
4 0 0 50 0 0 10 0.0000 4 105 240 450 2475 0..*\001
4 0 0 50 0 0 10 0.0000 4 105 240 2475 2100 0..*\001
4 0 0 50 0 0 10 0.0000 4 105 240 750 3375 0..*\001
4 0 0 50 0 0 10 0.0000 4 105 240 1200 3150 0..*\001
