%!PS-Adobe-2.0 EPSF-2.0
%%Title: seance.eps
%%Creator: fig2dev Version 3.2.3 Patchlevel 
%%CreationDate: Mon Feb 19 14:30:58 2001
%%For: rigaux@cartier (Philippe Rigaux)
%%BoundingBox: 0 0 232 146
%%Magnification: 1.0000
%%EndComments
/$F2psDict 200 dict def
$F2psDict begin
$F2psDict /mtrx matrix put
/col-1 {0 setgray} bind def
/col0 {0.000 0.000 0.000 srgb} bind def
/col1 {0.000 0.000 1.000 srgb} bind def
/col2 {0.000 1.000 0.000 srgb} bind def
/col3 {0.000 1.000 1.000 srgb} bind def
/col4 {1.000 0.000 0.000 srgb} bind def
/col5 {1.000 0.000 1.000 srgb} bind def
/col6 {1.000 1.000 0.000 srgb} bind def
/col7 {1.000 1.000 1.000 srgb} bind def
/col8 {0.000 0.000 0.560 srgb} bind def
/col9 {0.000 0.000 0.690 srgb} bind def
/col10 {0.000 0.000 0.820 srgb} bind def
/col11 {0.530 0.810 1.000 srgb} bind def
/col12 {0.000 0.560 0.000 srgb} bind def
/col13 {0.000 0.690 0.000 srgb} bind def
/col14 {0.000 0.820 0.000 srgb} bind def
/col15 {0.000 0.560 0.560 srgb} bind def
/col16 {0.000 0.690 0.690 srgb} bind def
/col17 {0.000 0.820 0.820 srgb} bind def
/col18 {0.560 0.000 0.000 srgb} bind def
/col19 {0.690 0.000 0.000 srgb} bind def
/col20 {0.820 0.000 0.000 srgb} bind def
/col21 {0.560 0.000 0.560 srgb} bind def
/col22 {0.690 0.000 0.690 srgb} bind def
/col23 {0.820 0.000 0.820 srgb} bind def
/col24 {0.500 0.190 0.000 srgb} bind def
/col25 {0.630 0.250 0.000 srgb} bind def
/col26 {0.750 0.380 0.000 srgb} bind def
/col27 {1.000 0.500 0.500 srgb} bind def
/col28 {1.000 0.630 0.630 srgb} bind def
/col29 {1.000 0.750 0.750 srgb} bind def
/col30 {1.000 0.880 0.880 srgb} bind def
/col31 {1.000 0.840 0.000 srgb} bind def

end
save
newpath 0 146 moveto 0 0 lineto 232 0 lineto 232 146 lineto closepath clip newpath
-17.0 145.0 translate
1 -1 scale

/cp {closepath} bind def
/ef {eofill} bind def
/gr {grestore} bind def
/gs {gsave} bind def
/sa {save} bind def
/rs {restore} bind def
/l {lineto} bind def
/m {moveto} bind def
/rm {rmoveto} bind def
/n {newpath} bind def
/s {stroke} bind def
/sh {show} bind def
/slc {setlinecap} bind def
/slj {setlinejoin} bind def
/slw {setlinewidth} bind def
/srgb {setrgbcolor} bind def
/rot {rotate} bind def
/sc {scale} bind def
/sd {setdash} bind def
/ff {findfont} bind def
/sf {setfont} bind def
/scf {scalefont} bind def
/sw {stringwidth} bind def
/tr {translate} bind def
/tnt {dup dup currentrgbcolor
  4 -2 roll dup 1 exch sub 3 -1 roll mul add
  4 -2 roll dup 1 exch sub 3 -1 roll mul add
  4 -2 roll dup 1 exch sub 3 -1 roll mul add srgb}
  bind def
/shd {dup dup currentrgbcolor 4 -2 roll mul 4 -2 roll mul
  4 -2 roll mul srgb} bind def
/reencdict 12 dict def /ReEncode { reencdict begin
/newcodesandnames exch def /newfontname exch def /basefontname exch def
/basefontdict basefontname findfont def /newfont basefontdict maxlength dict def
basefontdict { exch dup /FID ne { dup /Encoding eq
{ exch dup length array copy newfont 3 1 roll put }
{ exch newfont 3 1 roll put } ifelse } { pop pop } ifelse } forall
newfont /FontName newfontname put newcodesandnames aload pop
128 1 255 { newfont /Encoding get exch /.notdef put } for
newcodesandnames length 2 idiv { newfont /Encoding get 3 1 roll put } repeat
newfontname newfont definefont pop end } def
/isovec [
8#055 /minus 8#200 /grave 8#201 /acute 8#202 /circumflex 8#203 /tilde
8#204 /macron 8#205 /breve 8#206 /dotaccent 8#207 /dieresis
8#210 /ring 8#211 /cedilla 8#212 /hungarumlaut 8#213 /ogonek 8#214 /caron
8#220 /dotlessi 8#230 /oe 8#231 /OE
8#240 /space 8#241 /exclamdown 8#242 /cent 8#243 /sterling
8#244 /currency 8#245 /yen 8#246 /brokenbar 8#247 /section 8#250 /dieresis
8#251 /copyright 8#252 /ordfeminine 8#253 /guillemotleft 8#254 /logicalnot
8#255 /hypen 8#256 /registered 8#257 /macron 8#260 /degree 8#261 /plusminus
8#262 /twosuperior 8#263 /threesuperior 8#264 /acute 8#265 /mu 8#266 /paragraph
8#267 /periodcentered 8#270 /cedilla 8#271 /onesuperior 8#272 /ordmasculine
8#273 /guillemotright 8#274 /onequarter 8#275 /onehalf
8#276 /threequarters 8#277 /questiondown 8#300 /Agrave 8#301 /Aacute
8#302 /Acircumflex 8#303 /Atilde 8#304 /Adieresis 8#305 /Aring
8#306 /AE 8#307 /Ccedilla 8#310 /Egrave 8#311 /Eacute
8#312 /Ecircumflex 8#313 /Edieresis 8#314 /Igrave 8#315 /Iacute
8#316 /Icircumflex 8#317 /Idieresis 8#320 /Eth 8#321 /Ntilde 8#322 /Ograve
8#323 /Oacute 8#324 /Ocircumflex 8#325 /Otilde 8#326 /Odieresis 8#327 /multiply
8#330 /Oslash 8#331 /Ugrave 8#332 /Uacute 8#333 /Ucircumflex
8#334 /Udieresis 8#335 /Yacute 8#336 /Thorn 8#337 /germandbls 8#340 /agrave
8#341 /aacute 8#342 /acircumflex 8#343 /atilde 8#344 /adieresis 8#345 /aring
8#346 /ae 8#347 /ccedilla 8#350 /egrave 8#351 /eacute
8#352 /ecircumflex 8#353 /edieresis 8#354 /igrave 8#355 /iacute
8#356 /icircumflex 8#357 /idieresis 8#360 /eth 8#361 /ntilde 8#362 /ograve
8#363 /oacute 8#364 /ocircumflex 8#365 /otilde 8#366 /odieresis 8#367 /divide
8#370 /oslash 8#371 /ugrave 8#372 /uacute 8#373 /ucircumflex
8#374 /udieresis 8#375 /yacute 8#376 /thorn 8#377 /ydieresis] def
/Times-Roman /Times-Roman-iso isovec ReEncode
/Times-Bold /Times-Bold-iso isovec ReEncode
/$F2psBegin {$F2psDict begin /$F2psEnteredState save def} def
/$F2psEnd {$F2psEnteredState restore end} def

$F2psBegin
%%Page: 1 1
10 setmiterlimit
 0.06000 0.06000 sc
% Polyline
7.500 slw
n 300 1725 m
 1050 1725 l gs col0 s gr 
/Times-Roman-iso ff 150.00 scf sf
750 1500 m
gs 1 -1 sc (*) col0 sh gr
/Times-Roman-iso ff 150.00 scf sf
375 2175 m
gs 1 -1 sc (dateConstr.) col0 sh gr
% Polyline
n 1800 225 m
 2625 225 l gs col0 s gr 
/Times-Roman-iso ff 150.00 scf sf
1875 600 m
gs 1 -1 sc (heureD\351but) col0 sh gr
/Times-Roman-iso ff 150.00 scf sf
1875 750 m
gs 1 -1 sc (heureFin) col0 sh gr
/Times-Bold-iso ff 150.00 scf sf
1875 450 m
gs 1 -1 sc (id) col0 sh gr
% Polyline
n 3375 1725 m
 4125 1725 l gs col0 s gr 
/Times-Roman-iso ff 150.00 scf sf
3600 1650 m
gs 1 -1 sc (Film) col0 sh gr
/Times-Bold-iso ff 150.00 scf sf
3450 1875 m
gs 1 -1 sc (id) col0 sh gr
/Times-Roman-iso ff 150.00 scf sf
3450 2025 m
gs 1 -1 sc (titre) col0 sh gr
/Times-Roman-iso ff 150.00 scf sf
3450 2175 m
gs 1 -1 sc (ann\351e) col0 sh gr
/Times-Roman-iso ff 150.00 scf sf
3450 2325 m
gs 1 -1 sc (genre) col0 sh gr
% Polyline
n 600 975 m 825 975 l 825 1200 l 600 1200 l
 cp gs col0 s gr 
% Polyline
n 675 1200 m
 675 1500 l gs col0 s gr 
% Polyline
n 1800 1875 m
 1050 1875 l gs col0 s gr 
% Polyline
n 2100 1500 m
 2100 900 l gs col0 s gr 
% Polyline
n 1800 1725 m
 2625 1725 l gs col0 s gr 
% Polyline
n 2625 1875 m
 3375 1875 l gs col0 s gr 
/Times-Bold-iso ff 150.00 scf sf
375 450 m
gs 1 -1 sc (nom) col0 sh gr
/Times-Roman-iso ff 150.00 scf sf
375 750 m
gs 1 -1 sc (rue) col0 sh gr
/Times-Roman-iso ff 150.00 scf sf
375 900 m
gs 1 -1 sc (num\351ro) col0 sh gr
/Times-Bold-iso ff 150.00 scf sf
645 1133 m
gs 1 -1 sc (no) col0 sh gr
/Times-Bold-iso ff 150.00 scf sf
1875 1950 m
gs 1 -1 sc (id) col0 sh gr
/Times-Roman-iso ff 150.00 scf sf
1875 2175 m
gs 1 -1 sc (tarif) col0 sh gr
/Times-Bold-iso ff 150.00 scf sf
1875 1650 m
gs 1 -1 sc (S\351ance) col0 sh gr
/Times-Roman-iso ff 150.00 scf sf
1125 1800 m
gs 1 -1 sc (1..1) col0 sh gr
/Times-Roman-iso ff 150.00 scf sf
1650 1800 m
gs 1 -1 sc (*) col0 sh gr
/Times-Roman-iso ff 150.00 scf sf
2175 1050 m
gs 1 -1 sc (1..1) col0 sh gr
/Times-Roman-iso ff 150.00 scf sf
2700 1800 m
gs 1 -1 sc (*) col0 sh gr
/Times-Roman-iso ff 150.00 scf sf
3150 1800 m
gs 1 -1 sc (1..1) col0 sh gr
/Times-Roman-iso ff 150.00 scf sf
2175 1425 m
gs 1 -1 sc (*) col0 sh gr
% Polyline
n 375 1501 m 300 1501 300 2250 75 arcto 4 {pop} repeat
  300 2325 975 2325 75 arcto 4 {pop} repeat
  1050 2325 1050 1576 75 arcto 4 {pop} repeat
  1050 1501 375 1501 75 arcto 4 {pop} repeat
 cp gs col-1 s gr 
/Times-Roman-iso ff 150.00 scf sf
450 1650 m
gs 1 -1 sc (Salle) col-1 sh gr
/Times-Roman-iso ff 150.00 scf sf
375 1950 m
gs 1 -1 sc (capacit\351) col-1 sh gr
% Polyline
n 1875 1 m 1800 1 1800 825 75 arcto 4 {pop} repeat
  1800 900 2550 900 75 arcto 4 {pop} repeat
  2625 900 2625 76 75 arcto 4 {pop} repeat
  2625 1 1875 1 75 arcto 4 {pop} repeat
 cp gs col-1 s gr 
/Times-Roman-iso ff 150.00 scf sf
1950 150 m
gs 1 -1 sc (Horaire) col-1 sh gr
% Polyline
n 3450 1501 m 3375 1501 3375 2325 75 arcto 4 {pop} repeat
  3375 2400 4050 2400 75 arcto 4 {pop} repeat
  4125 2400 4125 1576 75 arcto 4 {pop} repeat
  4125 1501 3450 1501 75 arcto 4 {pop} repeat
 cp gs col-1 s gr 
% Polyline
n 300 225 m
 1125 225 l gs col-1 s gr 
% Polyline
n 405 0 m 300 0 300 870 105 arcto 4 {pop} repeat
  300 975 1020 975 105 arcto 4 {pop} repeat
  1125 975 1125 105 105 arcto 4 {pop} repeat
  1125 0 405 0 105 arcto 4 {pop} repeat
 cp gs col-1 s gr 
% Polyline
n 1875 1501 m 1800 1501 1800 2325 75 arcto 4 {pop} repeat
  1800 2400 2550 2400 75 arcto 4 {pop} repeat
  2625 2400 2625 1576 75 arcto 4 {pop} repeat
  2625 1501 1875 1501 75 arcto 4 {pop} repeat
 cp gs col-1 s gr 
/Times-Roman-iso ff 150.00 scf sf
375 150 m
gs 1 -1 sc (Cin\351ma) col-1 sh gr
/Times-Roman-iso ff 150.00 scf sf
375 600 m
gs 1 -1 sc (ville) col-1 sh gr
$F2psEnd
rs
