#FIG 3.1
Portrait
Center
Inches
1200 2
6 202 945 1430 1957
2 2 0 1 -1 7 0 0 -1 0.000 0 0 0 0 0 5
	 202 945 1026 945 1026 1957 202 1957 202 945
2 1 0 1 -1 7 0 0 -1 0.000 0 0 -1 0 0 2
	 204 1281 1029 1281
4 0 -1 0 0 1 10 0.0000000 4 240 1125 305 1172 ARTISTE\001
4 0 -1 0 0 1 10 0.0000000 4 240 255 352 1467 Id\001
4 0 -1 0 0 1 10 0.0000000 4 240 555 352 1683 Nom\001
4 0 -1 0 0 1 10 0.0000000 4 240 945 352 1899 Prenom\001
-6
6 3825 750 5175 1200
2 2 0 1 -1 7 0 0 -1 0.000 0 0 0 0 0 5
	 3834 826 4839 826 4839 1134 3834 1134 3834 826
4 0 -1 0 0 1 10 0.0000000 4 240 1125 4020 1021 ARTISTE\001
-6
6 3825 2025 4875 2400
2 2 0 1 -1 7 0 0 -1 0.000 0 0 0 0 0 5
	 3863 2025 4868 2025 4868 2333 3863 2333 3863 2025
4 0 -1 0 0 1 10 0.0000000 4 105 480 4051 2251 RELAIS\001
-6
1 2 0 1 -1 7 0 0 -1 0.0000000 1 0.000 2857 1507 450 225 2407 1282 3307 1732
2 1 0 1 -1 7 0 0 -1 0.000 0 0 -1 0 0 2
	 2415 1425 1020 1425
2 1 0 1 -1 7 0 0 -1 0.000 0 0 -1 0 0 2
	 2475 1650 1020 1650
2 1 0 1 -1 7 0 0 -1 0.000 0 0 -1 1 0 2
	0 0 1.00 60.00 120.00
	 4050 1125 4050 2025
2 1 0 1 -1 7 0 0 -1 0.000 0 0 -1 1 0 2
	0 0 1.00 60.00 120.00
	 4575 2025 4575 1125
4 0 -1 0 0 1 10 0.0000000 4 105 420 2625 1575 Fils de\001
4 0 -1 0 0 -1 10 0.0000000 4 270 375 1125 1350 0,n\001
4 0 -1 0 0 -1 10 0.0000000 4 120 195 1125 1875 0,2\001
4 0 -1 0 0 -1 10 0.0000000 4 135 540 1500 1350 parent de\001
4 0 -1 0 0 -1 10 0.0000000 4 105 540 1575 1875 enfant de\001
4 0 -1 0 0 2 12 0.0000000 4 330 3000 300 450 Modele conceptuel\001
4 0 -1 0 0 2 12 0.0000000 4 255 2325 3975 450 Modele reseau\001
