%!PS-Adobe-2.0 EPSF-2.0
%%Title: tennis.eps
%%Creator: fig2dev Version 3.2.3 Patchlevel 
%%CreationDate: Tue Jan  2 17:13:16 2001
%%For: rigaux@cartier (Philippe Rigaux)
%%BoundingBox: 0 0 200 97
%%Magnification: 1.0000
%%EndComments
/$F2psDict 200 dict def
$F2psDict begin
$F2psDict /mtrx matrix put
/col-1 {0 setgray} bind def
/col0 {0.000 0.000 0.000 srgb} bind def
/col1 {0.000 0.000 1.000 srgb} bind def
/col2 {0.000 1.000 0.000 srgb} bind def
/col3 {0.000 1.000 1.000 srgb} bind def
/col4 {1.000 0.000 0.000 srgb} bind def
/col5 {1.000 0.000 1.000 srgb} bind def
/col6 {1.000 1.000 0.000 srgb} bind def
/col7 {1.000 1.000 1.000 srgb} bind def
/col8 {0.000 0.000 0.560 srgb} bind def
/col9 {0.000 0.000 0.690 srgb} bind def
/col10 {0.000 0.000 0.820 srgb} bind def
/col11 {0.530 0.810 1.000 srgb} bind def
/col12 {0.000 0.560 0.000 srgb} bind def
/col13 {0.000 0.690 0.000 srgb} bind def
/col14 {0.000 0.820 0.000 srgb} bind def
/col15 {0.000 0.560 0.560 srgb} bind def
/col16 {0.000 0.690 0.690 srgb} bind def
/col17 {0.000 0.820 0.820 srgb} bind def
/col18 {0.560 0.000 0.000 srgb} bind def
/col19 {0.690 0.000 0.000 srgb} bind def
/col20 {0.820 0.000 0.000 srgb} bind def
/col21 {0.560 0.000 0.560 srgb} bind def
/col22 {0.690 0.000 0.690 srgb} bind def
/col23 {0.820 0.000 0.820 srgb} bind def
/col24 {0.500 0.190 0.000 srgb} bind def
/col25 {0.630 0.250 0.000 srgb} bind def
/col26 {0.750 0.380 0.000 srgb} bind def
/col27 {1.000 0.500 0.500 srgb} bind def
/col28 {1.000 0.630 0.630 srgb} bind def
/col29 {1.000 0.750 0.750 srgb} bind def
/col30 {1.000 0.880 0.880 srgb} bind def
/col31 {1.000 0.840 0.000 srgb} bind def

end
save
newpath 0 97 moveto 0 0 lineto 200 0 lineto 200 97 lineto closepath clip newpath
-8.0 321.0 translate
1 -1 scale

/cp {closepath} bind def
/ef {eofill} bind def
/gr {grestore} bind def
/gs {gsave} bind def
/sa {save} bind def
/rs {restore} bind def
/l {lineto} bind def
/m {moveto} bind def
/rm {rmoveto} bind def
/n {newpath} bind def
/s {stroke} bind def
/sh {show} bind def
/slc {setlinecap} bind def
/slj {setlinejoin} bind def
/slw {setlinewidth} bind def
/srgb {setrgbcolor} bind def
/rot {rotate} bind def
/sc {scale} bind def
/sd {setdash} bind def
/ff {findfont} bind def
/sf {setfont} bind def
/scf {scalefont} bind def
/sw {stringwidth} bind def
/tr {translate} bind def
/tnt {dup dup currentrgbcolor
  4 -2 roll dup 1 exch sub 3 -1 roll mul add
  4 -2 roll dup 1 exch sub 3 -1 roll mul add
  4 -2 roll dup 1 exch sub 3 -1 roll mul add srgb}
  bind def
/shd {dup dup currentrgbcolor 4 -2 roll mul 4 -2 roll mul
  4 -2 roll mul srgb} bind def
/$F2psBegin {$F2psDict begin /$F2psEnteredState save def} def
/$F2psEnd {$F2psEnteredState restore end} def

$F2psBegin
%%Page: 1 1
10 setmiterlimit
 0.06000 0.06000 sc
% Polyline
7.500 slw
n 2730 3750 m 2625 3750 2625 4320 105 arcto 4 {pop} repeat
  2625 4425 3345 4425 105 arcto 4 {pop} repeat
  3450 4425 3450 3855 105 arcto 4 {pop} repeat
  3450 3750 2730 3750 105 arcto 4 {pop} repeat
 cp gs col0 s gr 
/Times-Bold ff 150.00 scf sf
2775 4125 m
gs 1 -1 sc (no) col0 sh gr
% Polyline
n 255 3750 m 150 3750 150 4320 105 arcto 4 {pop} repeat
  150 4425 870 4425 105 arcto 4 {pop} repeat
  975 4425 975 3855 105 arcto 4 {pop} repeat
  975 3750 255 3750 105 arcto 4 {pop} repeat
 cp gs col0 s gr 
% Polyline
n 525 4425 m 525 5100 l
 1500 5100 l gs col0 s gr 
% Polyline
n 975 4125 m 1875 4125 l
 1875 4650 l gs col0 s gr 
% Polyline
n 1605 4650 m 1500 4650 1500 5220 105 arcto 4 {pop} repeat
  1500 5325 2220 5325 105 arcto 4 {pop} repeat
  2325 5325 2325 4755 105 arcto 4 {pop} repeat
  2325 4650 1605 4650 105 arcto 4 {pop} repeat
 cp gs col0 s gr 
% Polyline
n 2325 5100 m 3000 5100 l
 3000 4425 l gs col0 s gr 
/Times-Bold ff 150.00 scf sf
225 4125 m
gs 1 -1 sc (noCarte) col0 sh gr
/Times-Bold ff 150.00 scf sf
1650 5025 m
gs 1 -1 sc (id) col0 sh gr
/Times-Roman ff 150.00 scf sf
1275 5250 m
gs 1 -1 sc (0..*) col0 sh gr
/Times-Roman ff 150.00 scf sf
1950 4575 m
gs 1 -1 sc (0..*) col0 sh gr
/Times-Roman ff 150.00 scf sf
2400 5025 m
gs 1 -1 sc (0..*) col0 sh gr
/Times-Roman ff 150.00 scf sf
600 4575 m
gs 1 -1 sc (2..2) col0 sh gr
/Times-Roman ff 150.00 scf sf
225 4875 m
gs 1 -1 sc (Joue) col0 sh gr
/Times-Roman ff 150.00 scf sf
1350 4050 m
gs 1 -1 sc (Gagne) col0 sh gr
/Times-Roman ff 150.00 scf sf
1050 4275 m
gs 1 -1 sc (1..1) col0 sh gr
/Times-Roman ff 150.00 scf sf
3075 4575 m
gs 1 -1 sc (1..1) col0 sh gr
% Polyline
n 2626 3976 m
 3451 3976 l gs col-1 s gr 
/Times-Roman ff 150.00 scf sf
2776 3901 m
gs 1 -1 sc (Terrain) col-1 sh gr
/Times-Roman ff 150.00 scf sf
2775 4275 m
gs 1 -1 sc (surface) col-1 sh gr
% Polyline
n 152 3976 m
 977 3976 l gs col-1 s gr 
% Polyline
n 1501 4870 m
 2327 4870 l gs col-1 s gr 
/Times-Roman ff 150.00 scf sf
225 3900 m
gs 1 -1 sc (Joueur) col-1 sh gr
/Times-Roman ff 150.00 scf sf
225 4275 m
gs 1 -1 sc (nom) col-1 sh gr
/Times-Roman ff 150.00 scf sf
1650 4800 m
gs 1 -1 sc (Match) col-1 sh gr
/Times-Roman ff 150.00 scf sf
1650 5175 m
gs 1 -1 sc (horaire) col-1 sh gr
/Times-Roman ff 150.00 scf sf
2475 5250 m
gs 1 -1 sc (Se joue sur) col-1 sh gr
$F2psEnd
rs
