\boolfalse {citerequest}\boolfalse {citetracker}\boolfalse {pagetracker}\boolfalse {backtracker}\relax 
\babel@toc {french}{}
\addvspace {10\p@ }
\contentsline {figure}{\numberline {\relax 1.1}{\ignorespaces Le code Baudot}}{31}{figure.caption.24}% 
\contentsline {figure}{\numberline {\relax 1.2}{\ignorespaces Le code ASCII}}{32}{figure.caption.26}% 
\contentsline {figure}{\numberline {\relax 1.3}{\ignorespaces Le {\textit {Code Page}} 737}}{33}{figure.caption.27}% 
\contentsline {figure}{\numberline {\relax 1.4}{\ignorespaces Extrait du standard Unicode, alphabet Tagbanwa \cite {wiki:tagbanwa}.\relax }}{34}{figure.caption.29}% 
\contentsline {figure}{\numberline {\relax 1.5}{\ignorespaces Un exemple de contenu de fichier PGM avec l'image qu'il repr\IeC {\'e}sente\ldots \relax }}{35}{figure.caption.30}% 
\contentsline {figure}{\numberline {\relax 1.6}{\ignorespaces Un code QR}}{41}{figure.caption.31}% 
\contentsline {figure}{\numberline {\relax 1.7}{\ignorespaces Une repr\IeC {\'e}sentation, diff\IeC {\'e}rentes interpr\IeC {\'e}tations}}{43}{figure.caption.32}% 
